QScore	length	GC	GC_Skewed	TFBS	ratio_dat	nTFBS	nTF	QScore_norm
c1_arboreto.top7.fa	387.690012547883	755	52.98	5.5	231	0.367965367965368	85	38	0.188949004137324
c1_overlap.top7.fa	524.411539090437	1057	56.86	11.15	231	0.480519480519481	111	47	0.238401097769308
c2_arboreto.top7.fa	170.520950643273	604	44.21	4.87	231	0.164502164502165	38	21	0.0464421613804391
c2_overlap.top7.fa	405.559023239215	1057	47.02	8.25	231	0.372294372294372	86	42	0.142845167441024
c3_arboreto.top7.fa	267.511737299212	906	54.97	-21.29	231	0.251082251082251	58	31	0.0741362573863245
c3_overlap.top7.fa	226.198470516879	1057	48.44	1.17	231	0.220779220779221	51	35	0.0472468515252301
CLGT#3_20190606.fa	409.885993058314	1057	46.74	-0.4	231	0.376623376623377	87	46	0.146047915549904
CLGT1_20141001	319.469097303243	1110	55.86	-9.68	231	0.311688311688312	72	37	0.089707012229763
CLGT2_20141005	319.162246718529	1112	57.01	13.56	231	0.303030303030303	70	37	0.0869746693695578
MGT#1_20170423	377.761658737727	827	47.76	-0.76	231	0.359307359307359	83	43	0.164126413601718
MGT#2_20190403	451.183759802559	1037	46.29	-2.5	231	0.428571428571429	99	43	0.186465254085642
MGT#4_29190606	700.354976188237	1057	53.93	0.35	231	0.640692640692641	148	60	0.424514928208395
PNGT#1_20140930	253.776544109583	1064	66.64	4.37	231	0.251082251082251	58	29	0.059886077036568
PNGT#2_20151009	295.667530893194	1164	63.06	4.36	231	0.285714285714286	66	35	0.0725742589330374
PNGT#3_20190606	418.289181396213	1057	42.76	-3.54	231	0.38961038961039	90	40	0.154181467297625
ProA1	313.082129031162	2000	45.8	-1.31	231	0.307359307359307	71	40	0.0481143531627976
ProA10	297.895277023167	2097	43.06	3.43	231	0.294372294372294	68	42	0.0418178904053313
ProA11	398.228242258582	2000	57.1	-3.15	231	0.380952380952381	88	47	0.0758529985254442
ProA13	451.343764585079	2000	51.5	10.68	231	0.428571428571429	99	49	0.0967165209825169
ProA14	321.781236859092	2000	57.7	-9.36	231	0.307359307359307	71	35	0.0494512290411159
ProA15	349.478821225075	2000	40.15	-7.1	231	0.346320346320346	80	42	0.0605158131991471
ProA16	248.171635848587	2000	51.25	10.63	231	0.246753246753247	57	38	0.0306185784488516
ProA17	423.622400055393	2000	51.3	0	231	0.415584415584416	96	48	0.0880254337777441
ProA18	370.685347463217	2000	43.95	5.35	231	0.359307359307359	83	49	0.0665949866654698
ProA19	267.761313051404	2000	38.6	-7.25	231	0.268398268398268	62	34	0.0359333363835218
ProA20	236.679095641462	1272	50.08	1.1	231	0.233766233766234	54	26	0.0434965257856155
ProA21	467.563579741415	2000	51.6	-5.62	231	0.45021645021645	104	52	0.105252407560838
ProA22	281.532900856323	2000	37.4	-10.96	231	0.277056277056277	64	37	0.0390002286900534
ProA23	404.882966871495	2000	49.3	-11.36	231	0.385281385281385	89	43	0.0779969351765434
ProA24	339.612719800811	2000	48.1	17.67	231	0.333333333333333	77	37	0.0566021199668018
ProA25	253.366107998983	2000	48.55	4.63	231	0.251082251082251	58	36	0.0318078663721667
ProA26	271.709540131888	2000	43.35	4.96	231	0.268398268398268	62	39	0.0364631850393443
ProA27	257.175333761572	2000	49.05	4.99	231	0.255411255411255	59	36	0.0328427374284259
ProA28	363.434512020052	2000	51.35	17.82	231	0.350649350649351	81	43	0.0637190378216974
ProA29	316.967140291036	2000	51.65	-4.36	231	0.311688311688312	72	39	0.0493974764089926
ProA3	268.835665703825	2000	39.3	-5.09	231	0.264069264069264	61	35	0.0354956181989899
ProA30	391.360694602199	2000	59.45	-2.44	231	0.380952380952381	88	50	0.0745448942099426
ProA31	337.713495471405	2000	51.5	1.94	231	0.324675324675325	75	40	0.0548236193947086
ProA32	420.026832952996	2000	45.85	-0.11	231	0.398268398268398	92	44	0.0836417069949689
ProA33	218.887221549491	2000	43	1.63	231	0.212121212121212	49	33	0.0232153113764612
ProA34	293.899031898482	2000	52.05	-2.21	231	0.285714285714286	66	43	0.0419855759854975
ProA35	278.673256696717	2000	37.55	-1.73	231	0.277056277056277	64	38	0.0386040875077704
ProA36	322.862567049795	2000	43.45	14.38	231	0.316017316017316	73	41	0.0510150809407685
ProA37	386.78538933763	2000	53.7	1.68	231	0.372294372294372	86	44	0.0719990118680436
ProA4	297.683646002581	2000	45.75	-8.42	231	0.29004329004329	67	38	0.0431705720393354
ProA5	366.756770779364	2000	61.3	0.98	231	0.359307359307359	83	44	0.0658892034084139
ProA6	220.497090343201	1229	47.27	-3.96	231	0.216450216450216	50	31	0.0388337208555158
ProA7	94.230081610662	500	48.2	-3.73	231	0.0952380952380952	22	16	0.0179485869734594
ProA8	321.914515728206	2000	54.15	-11.91	231	0.316017316017316	73	39	0.0508652806237209
ProA9	323.53614408055	2000	55.15	-1.36	231	0.311688311688312	72	41	0.0504212172593065
ProB1	138.656484932987	394	52.54	-4.35	231	0.12987012987013	30	19	0.0457038977299054
ProB10	249.434109043886	1138	54.66	17.68	231	0.238095238095238	55	26	0.0521872351334601
ProB11	99.3067751090858	214	65.89	4.96	231	0.0952380952380952	22	10	0.0441952715216225
ProB12	268.866655018807	994	47.59	-1.9	231	0.25974025974026	60	29	0.0702570370322733
ProB13	306.044729379793	1297	46.26	-0.33	231	0.285714285714286	66	42	0.0674181582508632
ProB14	208.44324657706	711	46.98	-1.8	231	0.203463203463203	47	25	0.0596491289575794
ProB15	242.754675841849	1706	47.71	0.49	231	0.238095238095238	55	35	0.0338796789820031
ProB16	174.339487041243	1136	48.42	-4.36	231	0.168831168831169	39	27	0.0259101578966545
ProB2	55.4814603855712	592	45.95	-2.94	231	0.0562770562770563	13	7	0.00527421160211496
ProB3	318.514477600749	1636	49.27	-1.74	231	0.303030303030303	70	32	0.0589972730237737
ProB4	282.859849893146	1317	43.2	-1.23	231	0.272727272727273	63	37	0.058575243299471
ProB5	121.457955357633	619	46.2	-4.2	231	0.116883116883117	27	15	0.0229343851251221
ProB6	221.823082887485	1118	42.49	0.63	231	0.212121212121212	49	32	0.0420871030577438
ProB7	310.527543765047	1482	43.45	-2.8	231	0.29004329004329	67	38	0.0607735697993765
ProB8	115.0653811331	519	47.98	-5.22	231	0.116883116883117	27	19	0.0259136809097891
ProB9	90.2524130868532	406	54.43	5.88	231	0.0865800865800866	20	10	0.0192464574855209
ProC1	124.995576354069	734	42.78	-28.66	231	0.121212121212121	28	20	0.020641660697559
ProC10	81.2551600856227	754	37.53	-18.73	231	0.0779220779220779	18	14	0.00839730890684722
ProC11	64.4548791165816	230	53.48	-21.95	231	0.0606060606060606	14	12	0.016984157869982
ProC12	278.837055448644	1714	47.26	-8.64	231	0.272727272727273	63	37	0.0443678352787702
ProC13	166.269596628269	1023	45.94	-15.32	231	0.16017316017316	37	27	0.0260331639615508
ProC14	165.908116968128	983	45.47	-14.09	231	0.16017316017316	37	28	0.0270335985688335
ProC15	136.381574871784	714	47.48	-6.78	231	0.134199134199134	31	20	0.0256334583592547
ProC16	115.675304052816	694	39.77	-15.94	231	0.112554112554113	26	19	0.0187604195851467
ProC17	106.848892905331	754	42.44	-3.75	231	0.103896103896104	24	16	0.0147230552764933
ProC18	93.4474588223587	734	43.73	4.05	231	0.0909090909090909	21	16	0.0115738740181272
ProC19	166.611270340097	674	54.15	-28.77	231	0.164502164502165	38	29	0.0406645617231473
ProC2	161.670362658308	964	44.92	-15.01	231	0.155844155844156	36	27	0.0261362875451272
ProC20	134.975207591561	794	48.74	-20.93	231	0.12987012987013	30	22	0.0220771382105337
ProC21	111.139234560111	714	56.58	-23.76	231	0.108225108225108	25	19	0.0168460163702013
ProC22	134.487388205262	774	43.28	-15.82	231	0.12987012987013	30	21	0.0225657552611266
ProC23	115.159858200441	834	43.53	7.44	231	0.112554112554113	26	20	0.015541625469554
ProC24	71.4824857417649	654	45.11	-11.86	231	0.0692640692640693	16	13	0.00757059303300528
ProC25	198.72840576748	754	41.51	0.32	231	0.186147186147186	43	22	0.0490619808237832
ProC26	84.7649860520213	834	39.93	-14.11	231	0.0822510822510823	19	14	0.0083597264265907
ProC27	75.6095334034032	834	39.93	-1.5	231	0.0735930735930736	17	15	0.00667186805287123
ProC28	203.622990022462	694	53.03	-4.35	231	0.194805194805195	45	25	0.057156795732193
ProC29	151.280782459244	774	50.65	-17.86	231	0.147186147186147	34	25	0.0287680045393821
ProC3	170.16713034831	694	56.05	-0.77	231	0.168831168831169	39	25	0.0413969964169323
ProC30	110.929422767868	734	42.78	-15.29	231	0.103896103896104	24	15	0.0157018185736038
ProC31	165.394959691603	734	50.14	5.98	231	0.155844155844156	36	22	0.0351169453324469
ProC32	170.333847032938	814	52.21	-12.47	231	0.151515151515152	35	22	0.0317053545962582
ProC34	157.570050704239	924	38.96	-9.44	231	0.147186147186147	34	25	0.0250997063583147
ProC35	253.72216574613	994	50.7	-15.87	231	0.238095238095238	55	33	0.0607746875888976
ProC36	343.326072313637	986	49.39	-12.94	231	0.311688311688312	72	37	0.108530145880341
ProC37	97.6391574984968	578	55.36	-18.12	231	0.0952380952380952	22	19	0.0160881788595315
ProC38	197.246486704276	550	50.36	-15.52	231	0.177489177489178	41	24	0.0636529394323127
ProC39	101.680286207002	627	40.83	-12.5	231	0.0995670995670996	23	16	0.0161467482947109
ProC4	118.370686581735	764	37.57	-3.83	231	0.116883116883117	27	20	0.0181093387372614
ProC40	150.898414962167	714	48.32	-11.88	231	0.147186147186147	34	22	0.031106661505291
ProC41	185.084477171149	1054	46.68	-44.31	231	0.177489177489178	41	29	0.0311674493540053
ProC5	131.399425314591	764	48.95	-11.76	231	0.12987012987013	30	19	0.0223362047519194
ProC6	167.203718641207	839	60.67	-3.73	231	0.164502164502165	38	28	0.0327835204163164
ProC71	124.823028624478	828	43.6	-9.14	231	0.121212121212121	28	21	0.0182730242460076
ProC8	153.531994010309	814	57.99	0.85	231	0.138528138528139	32	20	0.0261283800181343
ProC9	148.657867899746	734	44.28	5.85	231	0.142857142857143	33	22	0.0289330221681094
ProD1	100.197908276617	625	42.88	6.72	231	0.0995670995670996	23	15	0.0159622641756689
ProD10	121.15644372467	628	46.97	11.86	231	0.121212121212121	28	24	0.0233847604178093
ProD11	131.409542716835	701	48.5	28.24	231	0.12987012987013	30	21	0.0243454698699141
ProD12	99.0604421966272	685	49.34	-8.88	231	0.0995670995670996	23	16	0.0143987750530693
ProD13	124.713985036296	698	45.42	-4.73	231	0.125541125541126	29	18	0.0224308510776155
ProD14	157.060697891877	668	46.86	20.77	231	0.155844155844156	36	27	0.0366422034120563
ProD15	178.102109007821	675	51.85	-16	231	0.173160173160173	40	24	0.0456891733866463
ProD16	115.555823050274	632	43.99	6.47	231	0.116883116883117	27	19	0.021371083500174
ProD17	88.6497504384202	443	48.98	9.68	231	0.0865800865800866	20	12	0.0173257405604097
ProD18	177.755750496744	502	50.4	2.77	231	0.16017316017316	37	16	0.0567165344542137
ProD19	127.427419898597	625	53.6	24.78	231	0.12987012987013	30	17	0.0264784249139943
ProD2	30.4591231464977	366	41.26	-1.99	231	0.0303030303030303	7	7	0.00252186811943184
ProD20	101.287797172697	603	50.41	13.16	231	0.103896103896104	24	16	0.0174517537287927
ProD21	154.02939325807	508	47.44	21.16	231	0.151515151515152	35	21	0.0459405253096129
ProD22	151.698710790306	816	42.65	10.34	231	0.151515151515152	35	25	0.028167467095645
ProD23	147.401141326751	816	42.65	10.34	231	0.147186147186147	34	24	0.0265875074543202
ProD24	147.1425696176	1015	43.25	9.79	231	0.147186147186147	34	24	0.0213372885803784
ProD25	354.674146433361	2190	45.43	0.5	231	0.350649350649351	81	46	0.0567882461821784
ProD3	124.254417604467	691	50.51	6.02	231	0.125541125541126	29	19	0.0225745867431574
ProD4	182.254660590423	552	48.73	4.83	231	0.168831168831169	39	24	0.0557432379934946
ProD5	68.0984605700076	321	47.04	17.88	231	0.0692640692640693	16	12	0.014694007756067
ProD6	21.5739618281181	448	37.72	-2.96	231	0.0216450216450216	5	5	0.00104234122932698
ProD7	189.914337364828	751	44.87	2.08	231	0.181818181818182	42	29	0.0459785346483059
ProD8	171.238260228564	761	45.07	-4.37	231	0.168831168831169	39	21	0.0379899548265497
ProD9	184.751676137815	719	51.04	-11.72	231	0.181818181818182	42	25	0.0467193516595816
S10_R1-T1_R1.top7.fa	158.302574275671	302	54.97	7.23	231	0.151515151515152	35	17	0.079421319624559
S10_R1-T1_R3.top7.fa	25.639157806119	302	35.76	-7.41	231	0.025974025974026	6	6	0.00220513957221287
S10_R1-T10_R1.top7.fa	236.317266930742	755	46.36	6.86	231	0.229437229437229	53	32	0.071814541712275
S10_R1-T10_R2.top7.fa	239.605456201237	755	53.25	-28.86	231	0.229437229437229	53	34	0.0728137907666956
S10_R1-T10_R3.top7.fa	150.580254627589	604	32.62	10.66	231	0.142857142857143	33	22	0.0356150081900637
S10_R1-T10_R4.top7.fa	196.690172866776	755	47.15	-21.91	231	0.19047619047619	44	29	0.0496222448102872
S10_R1-T101_R1.top7.fa	420.185821180352	1057	43.52	17.83	231	0.385281385281385	89	42	0.153159673850485
S10_R1-T101_R2.top7.fa	512.766988841234	1057	54.3	3.14	231	0.484848484848485	112	51	0.235207471731308
S10_R1-T101_R3.top7.fa	381.348608153134	1057	52.79	19.35	231	0.363636363636364	84	48	0.131194154348717
S10_R1-T101_R4.top7.fa	360.28037537764	1057	39.45	-3.12	231	0.341991341991342	79	35	0.116568371871848
S10_R1-T121_R1.top7.fa	467.772340893233	1057	47.4	22.55	231	0.428571428571429	99	51	0.189663065641262
S10_R1-T121_R2.top7.fa	492.131049582525	1057	51.37	10.87	231	0.458874458874459	106	53	0.213648409718544
S10_R1-T121_R3.top7.fa	345.90758310744	1057	45.03	-0.42	231	0.333333333333333	77	35	0.109084699813132
S10_R1-T121_R4.top7.fa	414.810231352074	1057	43.99	2.37	231	0.393939393939394	91	44	0.154598004861585
S10_R1-T141_R1.top7.fa	448.501461494534	1057	44.09	19.31	231	0.415584415584416	96	47	0.176338900438942
S10_R1-T141_R2.top7.fa	441.333106051097	1057	48.25	1.96	231	0.432900432900433	100	48	0.180750513399066
S10_R1-T141_R3.top7.fa	520.987294512436	1057	46.64	15.62	231	0.471861471861472	109	50	0.232576945704602
S10_R1-T141_R4.top7.fa	422.859915467343	1057	49.95	-6.82	231	0.398268398268398	92	45	0.159329934933859
S10_R1-T161_R1.top7.fa	431.954671566578	1057	49.67	-0.95	231	0.398268398268398	92	43	0.162756759857496
S10_R1-T161_R2.top7.fa	411.939653203904	1057	47.97	-9.27	231	0.393939393939394	91	40	0.153528152623226
S10_R1-T161_R3.top7.fa	349.298313294838	1057	42.95	-1.76	231	0.329004329004329	76	39	0.108723422126691
S10_R1-T161_R4.top7.fa	478.585215005849	1057	42.01	6.76	231	0.454545454545455	105	48	0.20580769545276
S10_R1-T181_R1.top7.fa	458.08594784372	1057	51.66	-2.2	231	0.437229437229437	101	38	0.189487853527363
S10_R1-T181_R2.top7.fa	454.747756997447	1057	51.84	6.57	231	0.424242424242424	98	45	0.182519669675877
S10_R1-T181_R3.top7.fa	328.210693686793	1057	43.9	5.6	231	0.316017316017316	73	36	0.0981270222394339
S10_R1-T181_R4.top7.fa	412.045320312401	1057	44.28	-3.42	231	0.385281385281385	89	43	0.150192423660051
S10_R1-T201_R1.top7.fa	512.947829194083	1057	47.3	29.2	231	0.480519480519481	111	54	0.233189616289438
S10_R1-T201_R2.top7.fa	453.714736903204	1057	49.1	-1.35	231	0.428571428571429	99	51	0.183963266753563
S10_R1-T201_R3.top7.fa	450.772518369206	1057	45.13	2.73	231	0.428571428571429	99	42	0.182770314246198
S10_R1-T201_R4.top7.fa	543.746181999886	1057	49.76	8.75	231	0.506493506493506	117	53	0.260552422292884
S10_R1-T21_R1.top7.fa	314.50804562948	1057	43.33	9.17	231	0.298701298701299	69	29	0.0888779202285079
S10_R1-T21_R2.top7.fa	230.586197121801	1057	40.78	2.09	231	0.225108225108225	52	30	0.0491077100932299
S10_R1-T21_R3.top7.fa	227.325985343643	1057	37.84	-1	231	0.220779220779221	51	29	0.0474823594200928
S10_R1-T21_R4.top7.fa	438.11147382392	1057	52.51	0.54	231	0.406926406926407	94	45	0.168665210857522
S10_R1-T221_R1.top7.fa	555.464627908366	1057	53.07	18.72	231	0.515151515151515	119	54	0.270717544635825
S10_R1-T221_R2.top7.fa	499.020804283394	1057	48.25	8.63	231	0.454545454545455	105	51	0.214595684305235
S10_R1-T221_R3.top7.fa	507.063661262684	1057	46.36	13.06	231	0.480519480519481	111	57	0.230514633018213
S10_R1-T221_R4.top7.fa	430.143376366082	1057	50.8	-9.87	231	0.415584415584416	96	38	0.169120987402654
S10_R1-T241_R1.top7.fa	454.425224038703	1057	49.67	-2.48	231	0.437229437229437	101	44	0.187973590321006
S10_R1-T241_R2.top7.fa	437.911183291831	1057	41.25	3.67	231	0.415584415584416	96	48	0.172175083430668
S10_R1-T241_R3.top7.fa	496.102950424008	1057	51.94	8.93	231	0.471861471861472	109	46	0.221468182007466
S10_R1-T241_R4.top7.fa	480.994848863277	1057	43.99	-1.08	231	0.458874458874459	106	48	0.208813860921039
S10_R1-T261_R1.top7.fa	486.398218953206	1057	46.93	12.5	231	0.45021645021645	104	55	0.207175477321396
S10_R1-T261_R2.top7.fa	566.136366810119	1057	46.45	18.13	231	0.532467532467532	123	58	0.285193220695854
S10_R1-T261_R3.top7.fa	492.215010348682	1057	53.17	16.73	231	0.463203463203463	107	46	0.215700754431635
S10_R1-T261_R4.top7.fa	418.489828204438	1057	43.9	9.91	231	0.398268398268398	92	46	0.157683324097066
S10_R1-T281_R1.top7.fa	476.652287108032	1057	45.79	3.31	231	0.454545454545455	105	46	0.20497647162124
S10_R1-T281_R2.top7.fa	510.174016311836	1057	45.03	16.39	231	0.458874458874459	106	49	0.221481386629048
S10_R1-T281_R3.top7.fa	559.973017591025	1057	48.72	16.89	231	0.523809523809524	121	58	0.277501608032675
S10_R1-T281_R4.top7.fa	471.389334281327	1057	46.55	2.85	231	0.458874458874459	106	47	0.204643827518955
S10_R1-T301_R1.top7.fa	487.245117821432	1057	51.37	15.29	231	0.454545454545455	105	54	0.209531744139258
S10_R1-T301_R2.top7.fa	505.258868427205	1057	47.68	-3.57	231	0.489177489177489	113	52	0.233832795309252
S10_R1-T301_R3.top7.fa	404.175744666305	1057	40.68	-5.12	231	0.380952380952381	88	42	0.145668601943075
S10_R1-T301_R4.top7.fa	506.840276884952	1057	48.53	-5.26	231	0.484848484848485	112	49	0.232488874463439
S10_R1-T41_R1.top7.fa	421.03088683877	1057	44.37	-15.99	231	0.38961038961039	90	41	0.155192060415573
S10_R1-T41_R2.top7.fa	446.406225133603	1057	45.41	4.58	231	0.398268398268398	92	43	0.168201979433304
S10_R1-T41_R3.top7.fa	462.707171468702	1057	49.39	12.64	231	0.445887445887446	103	48	0.195189516442747
S10_R1-T41_R4.top7.fa	443.34211082511	1057	48.06	2.76	231	0.415584415584416	96	45	0.174310380351196
S10_R1-T5_R1.top7.fa	74.8921776459336	453	42.38	-8.33	231	0.0735930735930736	17	15	0.0121667671987698
S10_R1-T5_R2.top7.fa	136.712540948792	604	36.59	-4.07	231	0.138528138528139	32	19	0.0313551884289538
S10_R1-T5_R3.top7.fa	336.223253801056	1057	45.6	7.05	231	0.316017316017316	73	36	0.100522583016858
S10_R1-T5_R4.top7.fa	184.155248740246	453	50.99	9.09	231	0.173160173160173	40	24	0.0703937191174741
S10_R1-T61_R1.top7.fa	516.873854013927	1057	51.09	3.33	231	0.484848484848485	112	50	0.237091300829186
S10_R1-T61_R2.top7.fa	516.34826470031	1057	46.83	3.84	231	0.480519480519481	111	52	0.234735477692458
S10_R1-T61_R3.top7.fa	286.418175989954	1057	39.26	-6.51	231	0.272727272727273	63	31	0.0739016537343995
S10_R1-T61_R4.top7.fa	467.032115864276	1057	49.95	13.64	231	0.437229437229437	101	48	0.193188447670209
S10_R1-T81_R1.top7.fa	294.4193530325	1057	40.11	4.25	231	0.272727272727273	63	33	0.0759661184396233
S10_R1-T81_R2.top7.fa	303.117180552085	1057	47.3	12	231	0.29004329004329	67	41	0.0831760684162467
S10_R1-T81_R3.top7.fa	329.133098553968	1057	45.51	3.12	231	0.307359307359307	71	32	0.0957068317886191
S10_R1-T81_R4.top7.fa	399.988374700367	1057	41.15	-3.91	231	0.372294372294372	86	42	0.14088308503701
S10_R2-T1_R1.top7.fa	51.2997775125826	302	33.11	2	231	0.051948051948052	12	7	0.00882425002366605
S10_R2-T1_R3.top7.fa	50.4798757384782	302	27.48	-3.61	231	0.051948051948052	12	11	0.00868321591785984
S10_R2-T1_R4.top7.fa	69.8343290835214	302	36.42	25.45	231	0.0692640692640693	16	8	0.0160165887637445
S10_R2-T10_R1.top7.fa	138.815434351218	604	29.97	-2.76	231	0.12987012987013	30	21	0.0298476465019391
S10_R2-T10_R2.top7.fa	279.143664911525	906	50.44	22.54	231	0.268398268398268	62	32	0.0826950069498894
S10_R2-T10_R3.top7.fa	211.980541575011	755	34.83	-3.42	231	0.199134199134199	46	28	0.0559106958656604
S10_R2-T10_R4.top7.fa	194.695793588964	906	42.94	-2.83	231	0.19047619047619	44	27	0.040932575126451
S10_R2-T101_R1.top7.fa	504.273739198336	1057	45.88	-7.22	231	0.480519480519481	111	52	0.229246315231032
S10_R2-T101_R2.top7.fa	324.161269891185	1057	40.49	-4.67	231	0.32034632034632	74	38	0.0982439640571727
S10_R2-T101_R3.top7.fa	366.706312162197	1057	41.34	3.89	231	0.350649350649351	81	44	0.121651211200277
S10_R2-T101_R4.top7.fa	375.643133836708	1057	35.48	5.6	231	0.359307359307359	83	41	0.127692850010225
S10_R2-T121_R1.top7.fa	433.991287633609	1057	37.37	-3.29	231	0.428571428571429	99	48	0.175966193120804
S10_R2-T121_R2.top7.fa	423.222745732494	1057	43.71	0	231	0.406926406926407	94	43	0.162933312441298
S10_R2-T121_R3.top7.fa	447.623694514929	1057	41.15	-1.61	231	0.424242424242424	98	43	0.179660322903845
S10_R2-T121_R4.top7.fa	426.017988402608	1057	35.76	-3.7	231	0.38961038961039	90	47	0.157030306946617
S10_R2-T141_R1.top7.fa	378.448087371844	1057	40.96	-4.39	231	0.354978354978355	82	36	0.127096385525035
S10_R2-T141_R2.top7.fa	402.874679470945	1057	45.41	4.58	231	0.393939393939394	91	46	0.150149675557532
S10_R2-T141_R3.top7.fa	416.646757132333	1057	40.11	5.66	231	0.402597402597403	93	43	0.15869527173331
S10_R2-T141_R4.top7.fa	357.740847449368	1057	43.99	4.95	231	0.341991341991342	79	43	0.115746710032478
S10_R2-T161_R1.top7.fa	474.866255265414	1057	42.38	11.61	231	0.454545454545455	105	50	0.204208418020734
S10_R2-T161_R2.top7.fa	531.34782734762	1057	47.4	-1	231	0.502164502164502	116	52	0.252435210214009
S10_R2-T161_R3.top7.fa	369.031212636371	1057	35.67	0.27	231	0.354978354978355	82	43	0.123933862627556
S10_R2-T161_R4.top7.fa	415.758599732578	1057	42.01	1.35	231	0.402597402597403	93	46	0.158356984257208
S10_R2-T181_R1.top7.fa	475.79970651589	1057	49.01	-9.27	231	0.441558441558442	102	46	0.198763838129726
S10_R2-T181_R2.top7.fa	395.42848960343	1057	46.45	-7.94	231	0.385281385281385	89	42	0.144135512066353
S10_R2-T181_R3.top7.fa	408.025452048555	1057	35.86	1.32	231	0.393939393939394	91	48	0.152069346539125
S10_R2-T181_R4.top7.fa	455.442948475352	1057	46.74	-1.21	231	0.437229437229437	101	51	0.188394573369909
S10_R2-T201_R1.top7.fa	429.115424311959	1057	41.91	-9.26	231	0.415584415584416	96	44	0.168716823870335
S10_R2-T201_R2.top7.fa	477.968238643687	1057	42.1	11.01	231	0.458874458874459	106	50	0.207499921349858
S10_R2-T201_R3.top7.fa	433.190950971692	1057	45.03	-15.13	231	0.41991341991342	97	43	0.172093371521353
S10_R2-T201_R4.top7.fa	471.887446315528	1057	44.94	-0.21	231	0.454545454545455	105	56	0.202927430255237
S10_R2-T21_R1.top7.fa	369.545343697665	1057	46.07	-2.26	231	0.363636363636364	84	47	0.127133514646139
S10_R2-T21_R2.top7.fa	234.378102225067	1057	43.61	7.16	231	0.229437229437229	53	35	0.0508751773086804
S10_R2-T21_R3.top7.fa	313.348053693627	1057	43.61	12.36	231	0.294372294372294	68	41	0.0872667790944994
S10_R2-T21_R4.top7.fa	378.894380244192	1057	52.32	-5.61	231	0.367965367965368	85	41	0.13190161783024
S10_R2-T221_R1.top7.fa	454.559239715702	1057	39.64	5.01	231	0.441558441558442	102	47	0.189890699607243
S10_R2-T221_R2.top7.fa	427.854770265987	1057	40.87	-3.7	231	0.406926406926407	94	46	0.164716560407438
S10_R2-T221_R3.top7.fa	436.819197224552	1057	42.67	6.43	231	0.41991341991342	97	50	0.173534761580318
S10_R2-T221_R4.top7.fa	424.830098750429	1057	42.38	-8.48	231	0.402597402597403	93	50	0.161812198961325
S10_R2-T241_R1.top7.fa	466.389682753152	1057	45.6	-7.05	231	0.441558441558442	102	48	0.194832830156498
S10_R2-T241_R2.top7.fa	396.667132923809	1057	37.46	2.02	231	0.380952380952381	88	44	0.142962430210861
S10_R2-T241_R3.top7.fa	477.510484419748	1057	42.95	-6.61	231	0.463203463203463	107	52	0.209256868589584
S10_R2-T241_R4.top7.fa	523.367734305048	1057	48.06	-18.5	231	0.502164502164502	116	55	0.248643990299203
S10_R2-T261_R1.top7.fa	402.229145513087	1057	43.9	2.59	231	0.38961038961039	90	47	0.148261735190168
S10_R2-T261_R2.top7.fa	508.693739591706	1057	44.75	17.55	231	0.484848484848485	112	53	0.233339062339592
S10_R2-T261_R3.top7.fa	407.881323155524	1057	41.34	-7.09	231	0.38961038961039	90	42	0.150345128883089
S10_R2-T261_R4.top7.fa	357.285712845823	1057	40.4	3.04	231	0.350649350649351	81	39	0.118526020062137
S10_R2-T281_R1.top7.fa	505.983897415956	1057	42.01	2.25	231	0.476190476190476	110	51	0.227951478765579
S10_R2-T281_R2.top7.fa	413.858850864867	1057	38.79	-13.17	231	0.393939393939394	91	41	0.154243429409801
S10_R2-T281_R3.top7.fa	515.188781084775	1057	42.95	-5.73	231	0.497835497835498	115	56	0.242648309659983
S10_R2-T281_R4.top7.fa	512.335962250057	1057	42.86	-6.4	231	0.489177489177489	113	54	0.237108060197555
S10_R2-T301_R1.top7.fa	536.852034843739	1057	43.71	-12.12	231	0.506493506493506	117	57	0.257248883250879
S10_R2-T301_R2.top7.fa	525.168098602875	1057	42.67	3.33	231	0.506493506493506	117	57	0.251650171958276
S10_R2-T301_R3.top7.fa	465.316204766184	1057	42.29	13.2	231	0.45021645021645	104	56	0.19819584667741
S10_R2-T301_R4.top7.fa	525.787460927966	1057	48.16	12.77	231	0.510822510822511	118	57	0.254100350946279
S10_R2-T41_R1.top7.fa	368.818482826933	1057	40.59	-11.89	231	0.359307359307359	83	40	0.125372937680503
S10_R2-T41_R2.top7.fa	377.038688356766	1057	45.22	12.13	231	0.367965367965368	85	45	0.13125560993224
S10_R2-T41_R3.top7.fa	322.380297962669	1057	42.86	-7.28	231	0.311688311688312	72	36	0.095063548527492
S10_R2-T41_R4.top7.fa	394.171142206653	1057	49.86	13.85	231	0.376623376623377	87	46	0.140448501935064
S10_R2-T5_R1.top7.fa	56.614891956248	453	38.19	-10.98	231	0.0562770562770563	13	8	0.007033376293027
S10_R2-T5_R2.top7.fa	144.699533914946	604	38.58	6.44	231	0.142857142857143	33	18	0.0342241092514063
S10_R2-T5_R3.top7.fa	212.872908061255	1057	45.79	4.13	231	0.212121212121212	49	33	0.0427198290309563
S10_R2-T5_R4.top7.fa	74.8561990412925	453	46.8	2.83	231	0.0735930735930736	17	12	0.0121609222184185
S10_R2-T61_R1.top7.fa	403.52680645656	1057	48.72	0.97	231	0.393939393939394	91	48	0.150392720505011
S10_R2-T61_R2.top7.fa	413.307977025704	1057	45.03	1.26	231	0.385281385281385	89	42	0.150652667867843
S10_R2-T61_R3.top7.fa	261.403157968257	1057	41.82	-3.62	231	0.246753246753247	57	30	0.0610237255820428
S10_R2-T61_R4.top7.fa	411.659469398869	1057	43.05	4.18	231	0.393939393939394	91	49	0.153423729313532
S10_R2-T81_R1.top7.fa	349.240076557346	1057	33.77	5.32	231	0.329004329004329	76	31	0.108705295221542
S10_R2-T81_R2.top7.fa	347.361803687535	1057	44.18	16.92	231	0.337662337662338	78	41	0.110965940064086
S10_R2-T81_R3.top7.fa	409.823530641969	1057	36.8	-7.97	231	0.402597402597403	93	45	0.156096394474696
S10_R2-T81_R4.top7.fa	457.892382556184	1057	42.57	-8	231	0.441558441558442	102	50	0.191283109596017
S10_R3-T1_R1.top7.fa	80.2484846511342	302	50.66	9.8	231	0.0779220779220779	18	9	0.0207057240864714
S10_R3-T1_R3.top7.fa	78.015000529812	302	49.67	14.67	231	0.0735930735930736	17	14	0.0190111379978614
S10_R3-T1_R4.top7.fa	25.7058887831478	302	39.4	9.24	231	0.025974025974026	6	4	0.00221087888390365
S10_R3-T10_R1.top7.fa	261.854495794831	755	45.3	-7.6	231	0.238095238095238	55	29	0.082577892082886
S10_R3-T10_R2.top7.fa	331.550995020177	1057	52.13	-1.63	231	0.316017316017316	73	38	0.0991256911723245
S10_R3-T10_R3.top7.fa	198.488724941339	604	34.11	6.8	231	0.181818181818182	42	20	0.0597497666891447
S10_R3-T10_R4.top7.fa	242.822667402718	755	47.15	7.87	231	0.225108225108225	52	27	0.0723991783775771
S10_R3-T101_R1.top7.fa	424.854291324478	1057	41.34	6.18	231	0.38961038961039	90	43	0.156601367994868
S10_R3-T101_R2.top7.fa	375.765892310186	1057	46.93	-6.45	231	0.346320346320346	80	42	0.123117666944406
S10_R3-T101_R3.top7.fa	410.873885207583	1057	47.97	2.17	231	0.393939393939394	91	44	0.153130945434436
S10_R3-T101_R4.top7.fa	380.586533159973	1057	45.98	-10.29	231	0.359307359307359	83	34	0.129373266052652
S10_R3-T121_R1.top7.fa	379.473696223459	1057	44.28	2.56	231	0.354978354978355	82	43	0.127440821611125
S10_R3-T121_R2.top7.fa	402.896746421039	1057	51.47	-1.47	231	0.385281385281385	89	47	0.146857726193435
S10_R3-T121_R3.top7.fa	375.947189953124	1057	52.03	1.45	231	0.354978354978355	82	40	0.126256494842285
S10_R3-T121_R4.top7.fa	478.348456744388	1057	45.6	7.47	231	0.454545454545455	105	52	0.205705881458841
S10_R3-T141_R1.top7.fa	550.36653510658	1057	49.39	4.6	231	0.497835497835498	115	50	0.259216649003578
S10_R3-T141_R2.top7.fa	427.125397605613	1057	49.2	-1.15	231	0.393939393939394	91	43	0.159187814823915
S10_R3-T141_R3.top7.fa	570.027713473454	1057	49.01	8.11	231	0.515151515151515	119	51	0.277815175283069
S10_R3-T141_R4.top7.fa	419.696336634435	1057	49.01	1.54	231	0.398268398268398	92	49	0.158137925970209
S10_R3-T161_R1.top7.fa	443.467901794716	1057	45.98	11.52	231	0.406926406926407	94	46	0.170727341404462
S10_R3-T161_R2.top7.fa	405.041879343636	1057	45.51	2.29	231	0.376623376623377	87	40	0.144321892405183
S10_R3-T161_R3.top7.fa	427.03330769639	1057	43.05	-12.09	231	0.402597402597403	93	50	0.16265137228112
S10_R3-T161_R4.top7.fa	419.670648007264	1057	51.09	-5.56	231	0.385281385281385	89	49	0.152971890847848
S10_R3-T181_R1.top7.fa	616.35106206708	1057	51.28	0	231	0.567099567099567	131	57	0.330683463083822
S10_R3-T181_R2.top7.fa	450.894380181937	1057	45.98	13.58	231	0.415584415584416	96	44	0.177279732713536
S10_R3-T181_R3.top7.fa	480.659677453996	1057	46.74	23.08	231	0.445887445887446	103	51	0.202762645147631
S10_R3-T181_R4.top7.fa	457.307807019693	1057	44.28	-3.85	231	0.424242424242424	98	49	0.183547183230862
S10_R3-T201_R1.top7.fa	494.316756580762	1057	48.82	12.4	231	0.454545454545455	105	43	0.212572786007036
S10_R3-T201_R2.top7.fa	424.041380734964	1057	50.8	7.64	231	0.393939393939394	91	40	0.158038414883591
S10_R3-T201_R3.top7.fa	593.547388555648	1057	47.3	4.8	231	0.545454545454545	126	59	0.306294343453504
S10_R3-T201_R4.top7.fa	478.576268913697	1057	51.09	15.56	231	0.445887445887446	103	48	0.201883775031478
S10_R3-T21_R1.top7.fa	354.276003032774	1057	46.07	3.08	231	0.329004329004329	76	39	0.110272789650079
S10_R3-T21_R2.top7.fa	395.260900932087	1057	46.64	-5.07	231	0.376623376623377	87	42	0.140836797688023
S10_R3-T21_R3.top7.fa	300.711646329817	1057	40.4	-0.23	231	0.285714285714286	66	36	0.0812844023056676
S10_R3-T21_R4.top7.fa	336.989287248139	1057	51.66	4.76	231	0.32034632034632	74	40	0.102131767422962
S10_R3-T221_R1.top7.fa	470.426863632326	1057	49.57	4.2	231	0.428571428571429	99	46	0.190739368954856
S10_R3-T221_R2.top7.fa	528.036184192293	1057	47.59	7.75	231	0.480519480519481	111	53	0.240048886398836
S10_R3-T221_R3.top7.fa	467.809834853119	1057	55.91	6.94	231	0.437229437229437	101	48	0.193510152150639
S10_R3-T221_R4.top7.fa	348.273213705695	1057	44.75	4.02	231	0.324675324675325	75	36	0.10697797420588
S10_R3-T241_R1.top7.fa	460.879812734778	1057	46.07	-1.03	231	0.432900432900433	100	47	0.188755979610176
S10_R3-T241_R2.top7.fa	438.15728167692	1057	43.14	3.07	231	0.406926406926407	94	51	0.168682846075147
S10_R3-T241_R3.top7.fa	488.622876704639	1057	52.6	12.59	231	0.454545454545455	105	51	0.210124226672675
S10_R3-T241_R4.top7.fa	470.061432868455	1057	52.51	8.11	231	0.437229437229437	101	49	0.194441528624728
S10_R3-T261_R1.top7.fa	489.552037907237	1057	52.7	0.9	231	0.45021645021645	104	49	0.208518808611944
S10_R3-T261_R2.top7.fa	494.658278691426	1057	51.94	17.3	231	0.454545454545455	105	52	0.212719651970167
S10_R3-T261_R3.top7.fa	526.763474369884	1057	48.63	17.51	231	0.484848484848485	112	55	0.241627693871109
S10_R3-T261_R4.top7.fa	463.377495468627	1057	54.12	10.49	231	0.428571428571429	99	47	0.187881130748193
S10_R3-T281_R1.top7.fa	548.658861650916	1057	49.1	12.52	231	0.497835497835498	115	51	0.258412353388686
S10_R3-T281_R2.top7.fa	491.78861313415	1057	46.64	13.59	231	0.458874458874459	106	50	0.213499748091347
S10_R3-T281_R3.top7.fa	520.687680849526	1057	50.43	13.32	231	0.489177489177489	113	49	0.240973218887059
S10_R3-T281_R4.top7.fa	489.460069389568	1057	54.4	16.17	231	0.445887445887446	103	49	0.20647502384485
S10_R3-T301_R1.top7.fa	474.344255858539	1057	50.14	8.3	231	0.441558441558442	102	47	0.198155828173221
S10_R3-T301_R2.top7.fa	486.615092128022	1057	48.53	7.21	231	0.445887445887446	103	53	0.205274891730603
S10_R3-T301_R3.top7.fa	493.575655891082	1057	47.78	16.44	231	0.454545454545455	105	52	0.212254087852018
S10_R3-T301_R4.top7.fa	595.575873659942	1057	48.16	7.66	231	0.545454545454545	126	56	0.307341123416156
S10_R3-T41_R1.top7.fa	301.922915036866	1057	46.74	0	231	0.281385281385281	65	33	0.0803752737978362
S10_R3-T41_R2.top7.fa	391.79509183132	1057	47.11	14.06	231	0.359307359307359	83	38	0.133183405710024
S10_R3-T41_R3.top7.fa	436.034395033054	1057	46.93	7.26	231	0.406926406926407	94	46	0.167865572059726
S10_R3-T41_R4.top7.fa	436.657551839013	1057	50.33	0.75	231	0.402597402597403	93	42	0.166317120335787
S10_R3-T5_R1.top7.fa	34.2248115715206	453	40.18	-17.58	231	0.0346320346320346	8	7	0.0026165007938626
S10_R3-T5_R2.top7.fa	184.111692542786	604	44.87	7.75	231	0.168831168831169	39	17	0.0514632321978202
S10_R3-T5_R3.top7.fa	300.644272518393	1057	51.47	1.84	231	0.277056277056277	64	28	0.0788035788668296
S10_R3-T5_R4.top7.fa	227.5197158792	453	56.95	-5.43	231	0.203463203463203	47	20	0.10218960318724
S10_R3-T61_R1.top7.fa	477.82954001615	1057	45.6	-5.81	231	0.445887445887446	103	46	0.201568773100638
S10_R3-T61_R2.top7.fa	381.542279865747	1057	55.53	10.73	231	0.367965367965368	85	44	0.132823410979323
S10_R3-T61_R3.top7.fa	294.635879160673	1057	43.71	-14.29	231	0.277056277056277	64	37	0.0772286847374259
S10_R3-T61_R4.top7.fa	381.767052717286	1057	55.35	13.16	231	0.350649350649351	81	42	0.126647463703532
S10_R3-T81_R1.top7.fa	521.338197410407	1057	42.38	0.45	231	0.484848484848485	112	50	0.239139106062513
S10_R3-T81_R2.top7.fa	346.89006730525	1057	44.47	3.83	231	0.329004329004329	76	41	0.10797382576351
S10_R3-T81_R3.top7.fa	500.078337012338	1057	45.79	4.55	231	0.467532467532468	108	49	0.221194757675413
S10_R3-T81_R4.top7.fa	415.417491734422	1057	44.47	5.53	231	0.385281385281385	89	44	0.151421595729003
S20_R1-T1_R1.top7.fa	43.04302601023	302	38.74	-4.27	231	0.0432900432900433	10	10	0.00616998165336859
S20_R1-T1_R3.top7.fa	46.8552170759347	302	44.37	16.42	231	0.0476190476190476	11	10	0.0073880821627144
S20_R1-T1_R4.top7.fa	99.2602099375142	302	39.4	5.88	231	0.0995670995670996	23	15	0.0327253351188731
S20_R1-T10_R1.top7.fa	176.885485399641	755	41.32	-5.77	231	0.173160173160173	40	28	0.0405689023593685
S20_R1-T10_R2.top7.fa	242.985498627078	1057	57.05	11.11	231	0.238095238095238	55	32	0.0547338601223313
S20_R1-T10_R3.top7.fa	100.822349628259	604	37.58	1.32	231	0.0995670995670996	23	16	0.016620180337791
S20_R1-T10_R4.top7.fa	105.184483593996	906	42.72	-0.78	231	0.103896103896104	24	13	0.0120620949621852
S20_R1-T101_R1.top7.fa	487.980200095251	1057	47.78	-5.35	231	0.45021645021645	104	51	0.207849303181454
S20_R1-T101_R2.top7.fa	331.68255016736	1057	50.99	2.04	231	0.316017316017316	73	39	0.0991650229646812
S20_R1-T101_R3.top7.fa	448.999589733995	1057	48.44	-2.73	231	0.424242424242424	98	45	0.180212558592814
S20_R1-T101_R4.top7.fa	408.72704238704	1057	41.53	-2.05	231	0.38961038961039	90	41	0.150656861143535
S20_R1-T121_R1.top7.fa	411.740755378224	1057	41.82	-3.62	231	0.380952380952381	88	40	0.148395100375086
S20_R1-T121_R2.top7.fa	374.727626559821	1057	50.14	9.81	231	0.359307359307359	83	37	0.127381640452908
S20_R1-T121_R3.top7.fa	426.037699580895	1057	42.48	10.02	231	0.385281385281385	89	45	0.155292710573909
S20_R1-T121_R4.top7.fa	467.621399940575	1057	43.9	0.43	231	0.428571428571429	99	44	0.189601865092813
S20_R1-T141_R1.top7.fa	420.027680106132	1057	46.74	12.96	231	0.393939393939394	91	36	0.156542525769895
S20_R1-T141_R2.top7.fa	382.094672460355	1057	42.86	13.02	231	0.359307359307359	83	42	0.129885929770237
S20_R1-T141_R3.top7.fa	517.895821623464	1057	43.71	9.52	231	0.493506493506494	114	54	0.241802224154267
S20_R1-T141_R4.top7.fa	455.480250777091	1057	45.6	12.45	231	0.437229437229437	101	54	0.188410003515979
S20_R1-T161_R1.top7.fa	465.739006254563	1057	45.51	-0.21	231	0.432900432900433	100	47	0.190746090280244
S20_R1-T161_R2.top7.fa	418.867843773723	1057	46.64	8.32	231	0.393939393939394	91	42	0.156110259713265
S20_R1-T161_R3.top7.fa	462.973434235276	1057	45.41	-3.75	231	0.437229437229437	101	47	0.191509568687672
S20_R1-T161_R4.top7.fa	516.763363618876	1057	45.41	9.17	231	0.484848484848485	112	52	0.237040618614777
S20_R1-T181_R1.top7.fa	465.843702546569	1057	51.37	9.39	231	0.437229437229437	101	46	0.19269685894164
S20_R1-T181_R2.top7.fa	475.634734292529	1057	48.53	8.38	231	0.441558441558442	102	51	0.198694921499785
S20_R1-T181_R3.top7.fa	432.80846388292	1057	47.59	-0.6	231	0.415584415584416	96	46	0.170168829255224
S20_R1-T181_R4.top7.fa	364.743954007443	1057	45.98	-13.99	231	0.341991341991342	79	33	0.118012558480827
S20_R1-T201_R1.top7.fa	454.36205587169	1057	44.84	2.53	231	0.428571428571429	99	49	0.184225728830257
S20_R1-T201_R2.top7.fa	486.051347998119	1057	49.95	-4.17	231	0.467532467532468	108	48	0.214990336875158
S20_R1-T201_R3.top7.fa	481.761143770881	1057	42.57	0	231	0.458874458874459	106	44	0.209146531839738
S20_R1-T201_R4.top7.fa	554.083832788162	1057	50.43	8.82	231	0.528138528138528	122	55	0.276852431328377
S20_R1-T21_R1.top7.fa	297.690374734866	1057	43.71	3.9	231	0.285714285714286	66	28	0.0804677320542955
S20_R1-T21_R2.top7.fa	332.909917623195	1057	46.07	-0.21	231	0.324675324675325	75	39	0.102258879462579
S20_R1-T21_R3.top7.fa	258.963462066124	1057	44.37	2.77	231	0.255411255411255	59	35	0.0625753859526525
S20_R1-T21_R4.top7.fa	323.044445609323	1057	53.26	-1.24	231	0.311688311688312	72	38	0.0952593924808483
S20_R1-T221_R1.top7.fa	564.794560281459	1057	40.87	15.74	231	0.536796536796537	124	55	0.286830429480236
S20_R1-T221_R2.top7.fa	427.068996203648	1057	46.36	-2.86	231	0.398268398268398	92	44	0.160915879913074
S20_R1-T221_R3.top7.fa	478.957097762844	1057	51.09	1.85	231	0.45021645021645	104	50	0.20400602115493
S20_R1-T221_R4.top7.fa	475.391812492239	1057	48.91	2.51	231	0.445887445887446	103	50	0.200540436204322
S20_R1-T241_R1.top7.fa	449.8330084352	1057	45.22	6.69	231	0.41991341991342	97	46	0.178704746416241
S20_R1-T241_R2.top7.fa	413.206286618053	1057	42.1	7.87	231	0.393939393939394	91	41	0.154000221496938
S20_R1-T241_R3.top7.fa	530.504468315307	1057	48.72	14.56	231	0.493506493506494	114	47	0.247689120102
S20_R1-T241_R4.top7.fa	462.778159836281	1057	47.11	1.61	231	0.441558441558442	102	42	0.193324127762149
S20_R1-T261_R1.top7.fa	493.625000671977	1057	45.32	-4.38	231	0.467532467532468	108	55	0.218340316556183
S20_R1-T261_R2.top7.fa	451.247721732025	1057	47.87	0.79	231	0.428571428571429	99	49	0.182962990295455
S20_R1-T261_R3.top7.fa	378.131133466811	1057	48.72	-3.3	231	0.367965367965368	85	41	0.131635914536686
S20_R1-T261_R4.top7.fa	444.692705161363	1057	43.24	5.91	231	0.41991341991342	97	45	0.176662662852278
S20_R1-T281_R1.top7.fa	517.875306840732	1057	46.17	11.89	231	0.502164502164502	116	53	0.246034622178775
S20_R1-T281_R2.top7.fa	502.159956849838	1057	42.86	11.7	231	0.467532467532468	108	47	0.222115500210031
S20_R1-T281_R3.top7.fa	467.46358763361	1057	44.18	-1.93	231	0.45021645021645	104	53	0.19911049860913
S20_R1-T281_R4.top7.fa	471.025377678167	1057	48.25	5.88	231	0.437229437229437	101	47	0.194840265660367
S20_R1-T301_R1.top7.fa	509.506323572973	1057	49.86	-0.19	231	0.489177489177489	113	50	0.235798509068572
S20_R1-T301_R2.top7.fa	418.118783406189	1057	45.03	-10.5	231	0.398268398268398	92	46	0.157543517647222
S20_R1-T301_R3.top7.fa	438.564883224763	1057	48.25	-1.57	231	0.411255411255411	95	45	0.170635933219282
S20_R1-T301_R4.top7.fa	531.304995485435	1057	46.83	-1.01	231	0.502164502164502	116	56	0.252414861452655
S20_R1-T41_R1.top7.fa	412.701349695479	1057	39.83	1.66	231	0.380952380952381	88	41	0.148741307274129
S20_R1-T41_R2.top7.fa	418.14274841492	1057	49.76	3.04	231	0.393939393939394	91	44	0.155840019764169
S20_R1-T41_R3.top7.fa	398.139912818527	1057	49.2	11.54	231	0.380952380952381	88	40	0.143493233434618
S20_R1-T41_R4.top7.fa	364.351139046232	1057	49.86	-11.95	231	0.350649350649351	81	41	0.120869905690551
S20_R1-T5_R1.top7.fa	70.0653248802081	453	41.06	25.81	231	0.0692640692640693	16	13	0.0107130452881065
S20_R1-T5_R2.top7.fa	121.185010200496	604	41.06	14.52	231	0.116883116883117	27	19	0.0234511286618316
S20_R1-T5_R3.top7.fa	291.055388644549	1057	43.05	4.18	231	0.277056277056277	64	38	0.0762901820198927
S20_R1-T5_R4.top7.fa	162.978833426529	453	51.43	21.03	231	0.155844155844156	36	23	0.056069092087909
S20_R1-T61_R1.top7.fa	482.301586133064	1057	49.1	-7.51	231	0.454545454545455	105	47	0.207405859694274
S20_R1-T61_R2.top7.fa	445.739995201727	1057	50.05	-11.15	231	0.41991341991342	97	50	0.177078718805439
S20_R1-T61_R3.top7.fa	327.430520059902	1057	44.37	-5.76	231	0.311688311688312	72	39	0.0965527587442732
S20_R1-T61_R4.top7.fa	389.584393321704	1057	49.95	-6.44	231	0.363636363636364	84	42	0.134027485446531
S20_R1-T81_R1.top7.fa	420.819612736698	1057	41.34	1.14	231	0.398268398268398	92	45	0.158561166626842
S20_R1-T81_R2.top7.fa	304.374764259766	1057	39.26	0.72	231	0.294372294372294	68	43	0.0847677367116116
S20_R1-T81_R3.top7.fa	417.69878378815	1057	43.61	9.76	231	0.398268398268398	92	42	0.157385265447459
S20_R1-T81_R4.top7.fa	435.132162713761	1057	45.32	-9.39	231	0.402597402597403	93	41	0.165736119673747
S20_R2-T1_R1.top7.fa	120.242162546936	302	38.74	-11.11	231	0.112554112554113	26	15	0.0448137413809857
S20_R2-T1_R3.top7.fa	34.5636038907888	302	35.76	-7.41	231	0.0346320346320346	8	6	0.00396360240713153
S20_R2-T1_R4.top7.fa	34.7598108739125	302	43.05	4.62	231	0.0346320346320346	8	6	0.0039861025628752
S20_R2-T10_R1.top7.fa	115.100207734637	755	38.68	0.68	231	0.112554112554113	26	20	0.0171589426971735
S20_R2-T10_R2.top7.fa	276.676061641213	906	59.93	5.34	231	0.264069264069264	61	33	0.08064199115141
S20_R2-T10_R3.top7.fa	154.169316373613	604	44.04	3.01	231	0.142857142857143	33	18	0.0364638875055849
S20_R2-T10_R4.top7.fa	257.990993385255	755	47.55	13.65	231	0.251082251082251	58	25	0.0857972971895576
S20_R2-T101_R1.top7.fa	380.653368475108	1057	47.59	-3.78	231	0.350649350649351	81	40	0.126278009913231
S20_R2-T101_R2.top7.fa	334.109601430504	1057	40.02	6.86	231	0.32034632034632	74	35	0.101259017417822
S20_R2-T101_R3.top7.fa	471.802869844474	1057	53.55	4.24	231	0.437229437229437	101	41	0.195161876315357
S20_R2-T101_R4.top7.fa	408.522084822553	1057	39.55	3.35	231	0.385281385281385	89	41	0.148908188040182
S20_R2-T121_R1.top7.fa	499.499531626658	1057	49.1	-6.36	231	0.476190476190476	110	49	0.225030198507302
S20_R2-T121_R2.top7.fa	413.621560307937	1057	49.2	8.46	231	0.398268398268398	92	43	0.155849003134454
S20_R2-T121_R3.top7.fa	409.612609825256	1057	42.76	-4.87	231	0.38961038961039	90	43	0.15098328146012
S20_R2-T121_R4.top7.fa	433.977471667774	1057	39.64	1.67	231	0.415584415584416	96	45	0.170628452166371
S20_R2-T141_R1.top7.fa	435.883286272717	1057	38.32	8.15	231	0.406926406926407	94	42	0.167807397845063
S20_R2-T141_R2.top7.fa	453.039884607606	1057	45.03	-8.82	231	0.424242424242424	98	47	0.181834190089346
S20_R2-T141_R3.top7.fa	493.90033068087	1057	47.68	-1.59	231	0.467532467532468	108	42	0.218462100584984
S20_R2-T141_R4.top7.fa	421.508876273586	1057	48.91	-1.35	231	0.398268398268398	92	49	0.158820875127146
S20_R2-T161_R1.top7.fa	568.747623866175	1057	44.94	-11.16	231	0.541125541125541	125	57	0.2911673280307
S20_R2-T161_R2.top7.fa	547.3674949236	1057	41.15	7.59	231	0.510822510822511	118	54	0.264529458939926
S20_R2-T161_R3.top7.fa	369.965951484292	1057	47.11	-13.25	231	0.354978354978355	82	38	0.12424778132062
S20_R2-T161_R4.top7.fa	483.192966626298	1057	48.25	1.18	231	0.463203463203463	107	48	0.211747072409515
S20_R2-T181_R1.top7.fa	582.149727454961	1057	50.05	3.97	231	0.54978354978355	127	58	0.302796919267469
S20_R2-T181_R2.top7.fa	447.974877350556	1057	46.36	9.39	231	0.41991341991342	97	45	0.177966568385588
S20_R2-T181_R3.top7.fa	488.866526863769	1057	44.65	4.66	231	0.458874458874459	106	47	0.212231185408182
S20_R2-T181_R4.top7.fa	543.893153653593	1057	37.84	15.5	231	0.502164502164502	116	49	0.258395302493035
S20_R2-T201_R1.top7.fa	559.536848366892	1057	51.94	10.02	231	0.523809523809524	121	51	0.277285458937506
S20_R2-T201_R2.top7.fa	463.565855241838	1057	45.32	2.3	231	0.437229437229437	101	46	0.191754624414543
S20_R2-T201_R3.top7.fa	496.348148928525	1057	44.56	13.38	231	0.463203463203463	107	49	0.21751199767107
S20_R2-T201_R4.top7.fa	465.47024980252	1057	43.24	1.09	231	0.441558441558442	102	50	0.194448739919224
S20_R2-T21_R1.top7.fa	340.153344575445	1057	44.28	7.26	231	0.32034632034632	74	37	0.103090702259449
S20_R2-T21_R2.top7.fa	320.588324552326	1057	45.6	7.47	231	0.303030303030303	70	34	0.091909155285779
S20_R2-T21_R3.top7.fa	275.930554096023	1057	42.57	1.78	231	0.272727272727273	63	33	0.0711956362163987
S20_R2-T21_R4.top7.fa	437.832580487151	1057	49.67	2.86	231	0.41991341991342	97	43	0.173937347418995
S20_R2-T221_R1.top7.fa	496.415414680659	1057	48.06	9.84	231	0.471861471861472	109	49	0.221607670980074
S20_R2-T221_R2.top7.fa	490.43869589218	1057	50.14	4.15	231	0.463203463203463	107	50	0.214922329636942
S20_R2-T221_R3.top7.fa	504.161480652023	1057	49.86	6.26	231	0.480519480519481	111	46	0.229195281722651
S20_R2-T221_R4.top7.fa	474.277068644057	1057	54.02	-3.68	231	0.445887445887446	103	45	0.200070189953343
S20_R2-T241_R1.top7.fa	569.814685899039	1057	49.86	10.06	231	0.536796536796537	124	52	0.289379895937947
S20_R2-T241_R2.top7.fa	415.785894684561	1057	47.68	0.4	231	0.398268398268398	92	48	0.156664505485916
S20_R2-T241_R3.top7.fa	523.799593080483	1057	44.28	4.27	231	0.502164502164502	116	53	0.248849159785459
S20_R2-T241_R4.top7.fa	514.836213341065	1057	50.9	1.49	231	0.489177489177489	113	45	0.238265171409488
S20_R2-T261_R1.top7.fa	487.181233001921	1057	48.82	8.91	231	0.45021645021645	104	51	0.207508992747586
S20_R2-T261_R2.top7.fa	451.990691158309	1057	50.05	6.24	231	0.428571428571429	99	45	0.183264234825642
S20_R2-T261_R3.top7.fa	563.724103362616	1057	55.44	6.83	231	0.532467532467532	123	50	0.283978034351906
S20_R2-T261_R4.top7.fa	454.536269699985	1057	47.21	-2.61	231	0.424242424242424	98	45	0.182434786152914
S20_R2-T281_R1.top7.fa	506.311317198418	1057	53.64	-0.53	231	0.476190476190476	110	48	0.228098985087362
S20_R2-T281_R2.top7.fa	472.772350451481	1057	43.14	20.18	231	0.445887445887446	103	53	0.199435435978255
S20_R2-T281_R3.top7.fa	591.015876830048	1057	46.36	9.39	231	0.562770562770563	130	56	0.314670139649937
S20_R2-T281_R4.top7.fa	515.268380710672	1057	48.06	5.91	231	0.489177489177489	113	50	0.238465177605106
S20_R2-T301_R1.top7.fa	521.559354471335	1057	45.79	6.61	231	0.484848484848485	112	51	0.239240551347191
S20_R2-T301_R2.top7.fa	450.510777742394	1057	48.53	5.65	231	0.424242424242424	98	40	0.180819096023437
S20_R2-T301_R3.top7.fa	442.325846196822	1057	46.07	4.31	231	0.41991341991342	97	47	0.175722382963675
S20_R2-T301_R4.top7.fa	487.931103729624	1057	48.34	4.89	231	0.463203463203463	107	51	0.21382344091982
S20_R2-T41_R1.top7.fa	440.316100250739	1057	44.37	3.2	231	0.424242424242424	98	45	0.176727312964374
S20_R2-T41_R2.top7.fa	399.315842862745	1057	40.21	-4.94	231	0.363636363636364	84	37	0.137375365223272
S20_R2-T41_R3.top7.fa	323.705195647421	1057	42.95	-18.94	231	0.303030303030303	70	31	0.0928027280317137
S20_R2-T41_R4.top7.fa	366.179205792951	1057	45.7	-1.04	231	0.341991341991342	79	38	0.118476932827299
S20_R2-T5_R1.top7.fa	108.018511579931	453	33.55	1.32	231	0.103896103896104	24	16	0.024774177708192
S20_R2-T5_R2.top7.fa	109.609960246342	604	44.04	6.77	231	0.112554112554113	26	16	0.0204255824546666
S20_R2-T5_R3.top7.fa	320.797528603565	906	46.58	5.21	231	0.29004329004329	67	27	0.102698863834365
S20_R2-T5_R4.top7.fa	111.937314500491	453	41.06	-18.28	231	0.112554112554113	26	19	0.0278123732787932
S20_R2-T61_R1.top7.fa	450.310847362266	1057	49.76	2.66	231	0.424242424242424	98	45	0.180738851038437
S20_R2-T61_R2.top7.fa	480.663180306489	1057	49.39	3.07	231	0.454545454545455	105	53	0.206701290232429
S20_R2-T61_R3.top7.fa	325.057020627811	1057	42.29	10.51	231	0.307359307359307	71	37	0.0945215711565223
S20_R2-T61_R4.top7.fa	440.649666073901	1057	46.93	-8.47	231	0.415584415584416	96	47	0.173251782358363
S20_R2-T81_R1.top7.fa	398.048926603688	1057	37.46	3.54	231	0.376623376623377	87	44	0.14183020889195
S20_R2-T81_R2.top7.fa	331.1366474188	1057	41.06	-6.45	231	0.311688311688312	72	41	0.0976456221117251
S20_R2-T81_R3.top7.fa	425.408663466647	1057	42.01	-1.35	231	0.402597402597403	93	44	0.162032566654782
S20_R2-T81_R4.top7.fa	468.696966631555	1057	47.02	-8.25	231	0.432900432900433	100	41	0.191957539975326
S20_R3-T1_R1.top7.fa	80.5303274762942	302	40.4	-4.92	231	0.0779220779220779	18	12	0.0207784452076101
S20_R3-T1_R3.top7.fa	26.4811886852601	302	46.03	12.23	231	0.025974025974026	6	3	0.00227755987660274
S20_R3-T1_R4.top7.fa	41.3107927138616	302	38.41	0	231	0.038961038961039	9	6	0.00532950796170915
S20_R3-T10_R1.top7.fa	142.028678765586	755	39.6	-4.35	231	0.142857142857143	33	24	0.0268739221883796
S20_R3-T10_R2.top7.fa	246.249955532663	1057	51.94	3.46	231	0.229437229437229	53	32	0.0534521358055395
S20_R3-T10_R3.top7.fa	122.95711378403	604	33.11	1	231	0.116883116883117	27	16	0.0237940574536913
S20_R3-T10_R4.top7.fa	175.756253564574	755	47.55	-5.29	231	0.168831168831169	39	24	0.0393021638658203
S20_R3-T101_R1.top7.fa	389.650687711399	1057	49.48	-7.07	231	0.359307359307359	83	44	0.132454455680113
S20_R3-T101_R2.top7.fa	451.608373865413	1057	44.18	-3.64	231	0.41991341991342	97	51	0.179410044211319
S20_R3-T101_R3.top7.fa	446.568939009438	1057	54.78	7.77	231	0.41991341991342	97	45	0.177408032551145
S20_R3-T101_R4.top7.fa	284.557462430437	1057	37.09	-4.08	231	0.277056277056277	64	34	0.0745869736514269
S20_R3-T121_R1.top7.fa	390.152755784787	1057	42.86	5.96	231	0.372294372294372	86	44	0.137418803513545
S20_R3-T121_R2.top7.fa	504.524340549293	1057	49.29	-1.34	231	0.476190476190476	110	54	0.227293931859843
S20_R3-T121_R3.top7.fa	481.522786281523	1057	47.02	-1.41	231	0.432900432900433	100	48	0.19721042822393
S20_R3-T121_R4.top7.fa	442.960932303285	1057	40.4	12.88	231	0.415584415584416	96	39	0.174160511048239
S20_R3-T141_R1.top7.fa	430.904011438139	1057	38.22	-3.47	231	0.406926406926407	94	46	0.165890464621284
S20_R3-T141_R2.top7.fa	413.701177221045	1057	40.87	-9.72	231	0.393939393939394	91	52	0.154184665114922
S20_R3-T141_R3.top7.fa	445.557738562205	1057	41.53	3.87	231	0.415584415584416	96	45	0.175181506517964
S20_R3-T141_R4.top7.fa	511.541740128261	1057	41.91	7.45	231	0.484848484848485	112	61	0.234645447150373
S20_R3-T161_R1.top7.fa	492.955180723712	1057	44.84	4.22	231	0.463203463203463	107	45	0.216025115340882
S20_R3-T161_R2.top7.fa	421.813315056092	1057	46.17	13.52	231	0.406926406926407	94	45	0.162390706423361
S20_R3-T161_R3.top7.fa	330.009302387434	1057	35.95	0.53	231	0.311688311688312	72	39	0.0973131904470926
S20_R3-T161_R4.top7.fa	414.151689340294	1057	47.59	-3.38	231	0.38961038961039	90	45	0.152656386983607
S20_R3-T181_R1.top7.fa	567.590727973781	1057	49.76	-8.75	231	0.519480519480519	120	50	0.27895205886485
S20_R3-T181_R2.top7.fa	446.088600618069	1057	45.41	13.33	231	0.41991341991342	97	42	0.177217208959248
S20_R3-T181_R3.top7.fa	402.921975948773	1057	44.18	7.92	231	0.385281385281385	89	46	0.146866922472901
S20_R3-T181_R4.top7.fa	514.742161991857	1057	46.64	-11.16	231	0.484848484848485	112	55	0.2361134884857
S20_R3-T201_R1.top7.fa	454.52130284956	1057	44.09	3	231	0.428571428571429	99	46	0.184290297141327
S20_R3-T201_R2.top7.fa	408.39271030758	1057	41.72	-2.49	231	0.376623376623377	87	47	0.145515838736436
S20_R3-T201_R3.top7.fa	546.116203204568	1057	49.39	2.3	231	0.519480519480519	120	51	0.268398040621985
S20_R3-T201_R4.top7.fa	454.406240799275	1057	47.68	-11.51	231	0.424242424242424	98	47	0.18238259715002
S20_R3-T21_R1.top7.fa	336.269943028876	1057	47.97	8.88	231	0.316017316017316	73	35	0.100536541961477
S20_R3-T21_R2.top7.fa	320.131800970305	1057	50.05	-8.88	231	0.303030303030303	70	39	0.0917782749836028
S20_R3-T21_R3.top7.fa	218.00699501983	1057	44.84	5.49	231	0.216450216450216	50	30	0.0446430097064366
S20_R3-T21_R4.top7.fa	445.72147552723	1057	50.61	-2.8	231	0.41991341991342	97	47	0.177071361511348
S20_R3-T221_R1.top7.fa	495.457114421901	1057	47.02	15.9	231	0.467532467532468	108	45	0.219150697504435
S20_R3-T221_R2.top7.fa	516.023197141339	1057	46.93	4.84	231	0.493506493506494	114	53	0.240927907842225
S20_R3-T221_R3.top7.fa	471.410421387049	1057	51.56	6.42	231	0.441558441558442	102	48	0.196930228005746
S20_R3-T221_R4.top7.fa	493.935914279293	1057	44.47	7.66	231	0.45021645021645	104	49	0.210386068080644
S20_R3-T241_R1.top7.fa	440.291675291626	1057	52.51	-0.9	231	0.415584415584416	96	40	0.173111029860694
S20_R3-T241_R2.top7.fa	329.707166380393	1057	35.29	-14.21	231	0.311688311688312	72	42	0.0972240965379771
S20_R3-T241_R3.top7.fa	501.430956288161	1057	43.9	15.52	231	0.476190476190476	110	49	0.225900327201046
S20_R3-T241_R4.top7.fa	446.099770751236	1057	50.8	-1.3	231	0.424242424242424	98	47	0.179048673791385
S20_R3-T261_R1.top7.fa	438.398536671592	1057	40.49	-10.28	231	0.406926406926407	94	51	0.168775725004319
S20_R3-T261_R2.top7.fa	510.058378720174	1057	48.53	-10.72	231	0.480519480519481	111	51	0.231876052201728
S20_R3-T261_R3.top7.fa	484.247344166515	1057	47.21	2.61	231	0.471861471861472	109	49	0.216175652377881
S20_R3-T261_R4.top7.fa	436.479824864157	1057	44.47	-15.74	231	0.424242424242424	98	54	0.17518756767576
S20_R3-T281_R1.top7.fa	482.401621854792	1057	49.01	-2.7	231	0.445887445887446	103	50	0.203497471202266
S20_R3-T281_R2.top7.fa	427.038484365097	1057	38.32	-2.22	231	0.398268398268398	92	44	0.16090438331793
S20_R3-T281_R3.top7.fa	518.350017035961	1057	49.1	0.58	231	0.484848484848485	112	49	0.237768420417287
S20_R3-T281_R4.top7.fa	444.349802880952	1057	43.24	-3.72	231	0.428571428571429	99	47	0.180166158756975
S20_R3-T301_R1.top7.fa	503.347163501082	1057	49.1	-8.67	231	0.467532467532468	108	52	0.22264062571157
S20_R3-T301_R2.top7.fa	500.727777458716	1057	49.67	-4.76	231	0.463203463203463	107	49	0.219431258884626
S20_R3-T301_R3.top7.fa	520.872899114906	1057	47.11	-0.4	231	0.497835497835498	115	51	0.245325467398191
S20_R3-T301_R4.top7.fa	515.745065050379	1057	50.24	-11.86	231	0.476190476190476	110	52	0.232348995382429
S20_R3-T41_R1.top7.fa	359.186031572438	1057	40.59	6.76	231	0.346320346320346	80	41	0.1176853650403
S20_R3-T41_R2.top7.fa	368.061391663014	1057	44.47	7.23	231	0.341991341991342	79	40	0.11908591227061
S20_R3-T41_R3.top7.fa	499.431536517701	1057	52.41	2.89	231	0.467532467532468	108	48	0.220908664741393
S20_R3-T41_R4.top7.fa	346.46902033877	1057	47.49	-3.19	231	0.333333333333333	77	38	0.109261753496932
S20_R3-T5_R1.top7.fa	85.871695072075	453	35.98	4.29	231	0.0822510822510823	19	15	0.0155916994578655
S20_R3-T5_R2.top7.fa	141.206896670789	604	40.89	-7.69	231	0.138528138528139	32	22	0.0323859744091715
S20_R3-T5_R3.top7.fa	250.541428959111	1057	44.47	5.53	231	0.229437229437229	53	26	0.0543836625540425
S20_R3-T5_R4.top7.fa	69.0498683341444	453	43.93	24.62	231	0.0692640692640693	16	13	0.0105577811544615
S20_R3-T61_R1.top7.fa	507.270000471493	1057	49.95	1.52	231	0.476190476190476	110	52	0.228530882764109
S20_R3-T61_R2.top7.fa	432.092233834299	1057	48.63	5.06	231	0.393939393939394	91	40	0.161038933512396
S20_R3-T61_R3.top7.fa	234.613347802281	1057	37.94	-2.74	231	0.229437229437229	53	30	0.0509262407840571
S20_R3-T61_R4.top7.fa	320.811555929244	1057	51.28	-2.21	231	0.298701298701299	69	32	0.0906592510827335
S20_R3-T81_R1.top7.fa	357.266991961174	1057	36.61	13.18	231	0.324675324675325	75	37	0.109740564437815
S20_R3-T81_R2.top7.fa	322.153856279771	1057	42.48	6.9	231	0.316017316017316	73	42	0.0963161750294809
S20_R3-T81_R3.top7.fa	365.663241476373	1057	47.21	-4.61	231	0.346320346320346	80	40	0.11980758791364
S20_R3-T81_R4.top7.fa	403.308759464715	1057	48.34	-6.85	231	0.376623376623377	87	38	0.143704358383525
S50_R1-T1_R1.top7.fa	86.7792710133606	302	35.76	14.81	231	0.0822510822510823	19	8	0.0236347316483738
S50_R1-T1_R3.top7.fa	106.577306463386	302	43.38	5.34	231	0.103896103896104	24	13	0.0366654533287645
S50_R1-T1_R4.top7.fa	90.231627688133	302	36.42	3.64	231	0.0909090909090909	21	15	0.0271618385575355
S50_R1-T10_R1.top7.fa	95.3385142749845	604	38.91	3.83	231	0.0952380952380952	22	11	0.0150328783151978
S50_R1-T10_R2.top7.fa	128.832960104294	604	58.11	-5.98	231	0.125541125541126	29	21	0.0267778722157087
S50_R1-T10_R3.top7.fa	154.116804402513	453	38.63	1.71	231	0.151515151515152	35	20	0.0515475297352708
S50_R1-T10_R4.top7.fa	183.856070141056	755	37.35	14.18	231	0.177489177489178	41	22	0.0432218048552695
S50_R1-T21_R1.top7.fa	272.046637502773	1057	40.96	5.31	231	0.25974025974026	60	29	0.066850959589815
S50_R1-T21_R2.top7.fa	288.368531091231	1057	46.74	3.24	231	0.281385281385281	65	36	0.0767669444311885
S50_R1-T21_R3.top7.fa	266.715796756131	1057	41.63	-5	231	0.25974025974026	60	33	0.0655409936861568
S50_R1-T21_R4.top7.fa	409.477095034196	1057	52.03	4	231	0.38961038961039	90	55	0.150933330683825
S50_R1-T41_R3.top7.fa	412.73773391224	1057	40.49	-3.74	231	0.38961038961039	90	46	0.152135202759184
S50_R1-T5_R1.top7.fa	38.612081206741	302	25.5	-9.09	231	0.038961038961039	9	5	0.00498134702073721
S50_R1-T5_R2.top7.fa	136.599309437856	604	37.25	21.78	231	0.12987012987013	30	20	0.0293711424782523
S50_R1-T5_R3.top7.fa	210.54164137374	1057	46.17	-5.74	231	0.207792207792208	48	30	0.0413896996151795
S50_R1-T5_R4.top7.fa	83.5073047368937	453	34.44	0	231	0.0822510822510823	19	10	0.01516239777148
S50_R2-T1_R1.top7.fa	51.981444417478	302	42.05	-14.96	231	0.051948051948052	12	7	0.00894150587726465
S50_R2-T1_R3.top7.fa	73.0194916575869	302	37.09	1.79	231	0.0735930735930736	17	13	0.0177938040506146
S50_R2-T1_R4.top7.fa	59.6051787492762	302	37.42	22.12	231	0.0562770562770563	13	9	0.0111072980095265
S50_R2-T10_R1.top7.fa	206.680653357565	604	39.4	-3.36	231	0.199134199134199	46	25	0.0681410370577678
S50_R2-T10_R2.top7.fa	228.690773433545	755	54.04	4.9	231	0.225108225108225	52	29	0.0681856610678841
S50_R2-T10_R3.top7.fa	180.809421789366	604	40.73	18.7	231	0.177489177489178	41	22	0.0531319793968351
S50_R2-T10_R4.top7.fa	208.950972953095	755	44.9	2.65	231	0.199134199134199	46	23	0.0551116353077169
S50_R2-T101_R1.top7.fa	425.368653739067	1057	45.98	-4.94	231	0.398268398268398	92	52	0.160275205674781
S50_R2-T101_R2.top7.fa	361.464198086813	1057	43.61	-5.86	231	0.350649350649351	81	39	0.119912191430586
S50_R2-T101_R3.top7.fa	489.785935480194	1057	50.33	-6.39	231	0.463203463203463	107	49	0.214636273928831
S50_R2-T101_R4.top7.fa	417.250149547094	1057	38.22	7.92	231	0.38961038961039	90	43	0.153798479971653
S50_R2-T121_R1.top7.fa	401.101948442378	1057	45.13	8.18	231	0.359307359307359	83	40	0.136347097358436
S50_R2-T121_R2.top7.fa	446.575909147223	1057	43.14	5.26	231	0.428571428571429	99	50	0.181068756242961
S50_R2-T121_R3.top7.fa	376.044379743051	1057	40.3	2.35	231	0.354978354978355	82	39	0.126289134645264
S50_R2-T121_R4.top7.fa	320.383860349832	1057	34.34	1.38	231	0.303030303030303	70	39	0.0918505376422212
S50_R2-T141_R1.top7.fa	429.172932324473	1057	40.68	-1.86	231	0.415584415584416	96	50	0.168739434498312
S50_R2-T141_R2.top7.fa	369.228987960471	1057	39.45	2.64	231	0.341991341991342	79	33	0.119463686939174
S50_R2-T141_R3.top7.fa	426.438937539003	1057	34.72	-3.54	231	0.393939393939394	91	38	0.158931974083514
S50_R2-T141_R4.top7.fa	340.959187295766	1057	42.76	5.75	231	0.316017316017316	73	41	0.101938512053598
S50_R2-T161_R1.top7.fa	500.334738435779	1057	50.14	-4.91	231	0.463203463203463	107	50	0.219259019493332
S50_R2-T161_R2.top7.fa	497.019313920025	1057	47.97	2.17	231	0.454545454545455	105	44	0.213734976313763
S50_R2-T161_R3.top7.fa	342.227014848045	1057	36.99	-6.39	231	0.329004329004329	76	45	0.106522392986978
S50_R2-T161_R4.top7.fa	426.17204886638	1057	39.74	-6.67	231	0.406926406926407	94	42	0.164068742268364
S50_R2-T181_R1.top7.fa	428.986474468963	1057	51.18	4.99	231	0.393939393939394	91	40	0.159881430236992
S50_R2-T181_R2.top7.fa	504.990977737411	1057	44.47	3.4	231	0.471861471861472	109	47	0.225435937589346
S50_R2-T181_R3.top7.fa	389.426746625187	1057	37.65	-0.5	231	0.376623376623377	87	39	0.138758009708074
S50_R2-T181_R4.top7.fa	422.756780619169	1057	43.71	5.63	231	0.393939393939394	91	42	0.157559649896769
S50_R2-T201_R1.top7.fa	527.021607934963	1057	50.61	-2.8	231	0.489177489177489	113	49	0.243904547693385
S50_R2-T201_R2.top7.fa	468.275503038233	1057	41.63	6.36	231	0.437229437229437	101	46	0.193702776406564
S50_R2-T201_R3.top7.fa	493.656861839378	1057	45.98	1.23	231	0.45021645021645	104	47	0.210267209046658
S50_R2-T201_R4.top7.fa	609.577192904031	1057	44.18	7.49	231	0.554112554112554	128	61	0.319559484663022
S50_R2-T21_R1.top7.fa	394.934977725942	1057	49.95	6.44	231	0.367965367965368	85	39	0.137485708988951
S50_R2-T21_R2.top7.fa	273.960808364763	1057	43.8	-0.65	231	0.264069264069264	61	33	0.0684433576619712
S50_R2-T21_R3.top7.fa	276.414022553118	1057	44.56	-13.38	231	0.264069264069264	61	33	0.0690562417351247
S50_R2-T21_R4.top7.fa	350.338522732355	1057	44.47	-4.26	231	0.324675324675325	75	37	0.107612368603974
S50_R2-T221_R1.top7.fa	482.051517525551	1057	42.01	4.95	231	0.432900432900433	100	41	0.197426973147703
S50_R2-T221_R2.top7.fa	514.561520276721	1057	42.01	-8.56	231	0.476190476190476	110	48	0.231815795051908
S50_R2-T221_R3.top7.fa	475.147032248553	1057	42.38	8.04	231	0.45021645021645	104	49	0.202383169526797
S50_R2-T221_R4.top7.fa	553.516494059788	1057	47.11	6.02	231	0.519480519480519	120	55	0.27203503867097
S50_R2-T241_R1.top7.fa	455.55232376293	1057	43.52	2.61	231	0.415584415584416	96	42	0.179111112809025
S50_R2-T241_R2.top7.fa	321.428364559709	1057	36.99	0.77	231	0.298701298701299	69	38	0.0908335571744744
S50_R2-T241_R3.top7.fa	485.553363426369	1057	42.48	-0.67	231	0.45021645021645	104	42	0.206815621260622
S50_R2-T241_R4.top7.fa	432.418368769829	1057	45.6	-1.66	231	0.424242424242424	98	52	0.173557442813497
S50_R2-T261_R1.top7.fa	489.810369519197	1057	42.95	10.57	231	0.467532467532468	108	55	0.216653028083538
S50_R2-T261_R2.top7.fa	474.713890039331	1057	43.71	0	231	0.454545454545455	105	50	0.20414289586279
S50_R2-T261_R3.top7.fa	481.809098887277	1057	45.41	-1.67	231	0.445887445887446	103	47	0.203247519875288
S50_R2-T261_R4.top7.fa	429.916491924572	1057	42.67	2	231	0.411255411255411	95	44	0.167271034713267
S50_R2-T281_R1.top7.fa	465.744772332137	1057	46.36	2.86	231	0.428571428571429	99	48	0.188840967292392
S50_R2-T281_R2.top7.fa	345.412693043183	1057	35.95	-10.53	231	0.333333333333333	77	39	0.10892863230627
S50_R2-T281_R3.top7.fa	531.27848982324	1057	37.37	5.32	231	0.497835497835498	115	49	0.250226387389257
S50_R2-T281_R4.top7.fa	485.983796524123	1057	45.41	-2.08	231	0.441558441558442	102	49	0.203018209854159
S50_R2-T301_R1.top7.fa	479.803965955259	1057	47.11	2.01	231	0.454545454545455	105	49	0.206331799241102
S50_R2-T301_R2.top7.fa	436.587482507454	1057	42.1	2.47	231	0.398268398268398	92	42	0.164502362689003
S50_R2-T301_R3.top7.fa	445.644854749937	1057	47.02	5.03	231	0.406926406926407	94	44	0.171565429998706
S50_R2-T41_R1.top7.fa	326.272786242085	1057	38.88	-4.62	231	0.311688311688312	72	32	0.0962113660299309
S50_R2-T41_R2.top7.fa	437.740398510099	1057	48.44	4.69	231	0.402597402597403	93	48	0.16672956239557
S50_R2-T41_R3.top7.fa	381.117634920582	1057	47.97	0.2	231	0.372294372294372	86	42	0.134236471772066
S50_R2-T41_R4.top7.fa	403.600539479732	1057	44.09	16.31	231	0.367965367965368	85	42	0.140502385071599
S50_R2-T5_R1.top7.fa	65.2678260854463	453	41.5	3.19	231	0.0649350649350649	15	12	0.00935578482346353
S50_R2-T5_R2.top7.fa	140.782101342453	453	45.03	16.67	231	0.134199134199134	31	19	0.041706039979894
S50_R2-T5_R3.top7.fa	280.133185101427	1057	45.03	2.1	231	0.272727272727273	63	33	0.0722799995961366
S50_R2-T5_R4.top7.fa	53.3378851047522	453	35.98	17.79	231	0.051948051948052	12	9	0.00611655458326908
S50_R2-T61_R1.top7.fa	395.131578730202	1057	49.76	-5.32	231	0.380952380952381	88	43	0.142409002560779
S50_R2-T61_R2.top7.fa	468.595548515454	1057	45.51	3.53	231	0.428571428571429	99	43	0.189996843566207
S50_R2-T61_R3.top7.fa	275.537302098123	1057	37.37	-2.78	231	0.264069264069264	61	38	0.0688372115313926
S50_R2-T61_R4.top7.fa	420.264385345361	1057	44.75	-1.06	231	0.406926406926407	94	48	0.161794395731053
S50_R2-T81_R1.top7.fa	276.63989820593	1057	31.41	-5.42	231	0.268398268398268	62	37	0.0702456666493329
S50_R2-T81_R2.top7.fa	304.138673546235	1057	45.22	-6.69	231	0.303030303030303	70	38	0.0871932208211449
S50_R2-T81_R3.top7.fa	429.460228566722	1057	43.71	-2.16	231	0.398268398268398	92	38	0.161816875450566
S50_R2-T81_R4.top7.fa	492.195344166198	1057	48.63	-4.67	231	0.467532467532468	108	52	0.217707950582795
S50_R3-T1_R1.top7.fa	84.7465323715947	302	37.75	19.3	231	0.0822510822510823	19	12	0.0230811059754637
S50_R3-T1_R3.top7.fa	21.8498454382051	302	41.72	-26.98	231	0.0216450216450216	5	5	0.00156602773990174
S50_R3-T1_R4.top7.fa	118.145563274452	302	35.43	14.02	231	0.116883116883117	27	14	0.0457258996073824
S50_R3-T10_R1.top7.fa	234.783995239631	755	37.09	7.86	231	0.225108225108225	52	33	0.0700023953009421
S50_R3-T10_R2.top7.fa	255.225156256027	755	50.07	5.82	231	0.238095238095238	55	27	0.0804872772803618
S50_R3-T10_R3.top7.fa	95.9545111801019	604	38.08	-18.26	231	0.0909090909090909	21	13	0.0144422804304789
S50_R3-T10_R4.top7.fa	175.32621801672	906	40.4	13.66	231	0.173160173160173	40	19	0.0335094020654455
S50_R3-T101_R1.top7.fa	350.47944275887	1057	46.07	3.08	231	0.329004329004329	76	38	0.109091063287316
S50_R3-T101_R2.top7.fa	342.283259652246	1057	46.64	-3.45	231	0.324675324675325	75	38	0.10513805909037
S50_R3-T101_R3.top7.fa	418.113021898209	1057	46.55	-9.35	231	0.393939393939394	91	43	0.155828940818116
S50_R3-T101_R4.top7.fa	259.277853231864	1057	34.82	17.39	231	0.251082251082251	58	31	0.0615894674032449
S50_R3-T121_R1.top7.fa	408.356012016202	1057	42.38	-1.79	231	0.380952380952381	88	43	0.147175208187125
S50_R3-T121_R2.top7.fa	449.730711284577	1057	47.97	-14.4	231	0.424242424242424	98	45	0.180506004930595
S50_R3-T121_R3.top7.fa	482.979868898153	1057	47.02	-12.68	231	0.454545454545455	105	52	0.207697544034641
S50_R3-T121_R4.top7.fa	428.032844528133	1057	38.69	6.11	231	0.398268398268398	92	42	0.161279049570942
S50_R3-T141_R1.top7.fa	387.167965773652	1057	41.82	0.9	231	0.363636363636364	84	43	0.133196169527359
S50_R3-T141_R2.top7.fa	448.088926027507	1057	44.28	-3.42	231	0.424242424242424	98	50	0.179847050382303
S50_R3-T141_R3.top7.fa	433.610784528221	1057	43.9	0	231	0.402597402597403	93	42	0.165156646725907
S50_R3-T141_R4.top7.fa	506.117087776572	1057	48.16	10.02	231	0.463203463203463	107	52	0.221792987553982
S50_R3-T161_R1.top7.fa	470.451119550534	1057	46.55	-3.25	231	0.445887445887446	103	44	0.198456242300168
S50_R3-T161_R2.top7.fa	378.667780500734	1057	41.72	-1.13	231	0.354978354978355	82	33	0.127170166324934
S50_R3-T161_R3.top7.fa	407.448882412195	1057	39.74	9.05	231	0.385281385281385	89	48	0.14851700080144
S50_R3-T161_R4.top7.fa	462.908447001442	1057	46.74	-7.69	231	0.432900432900433	100	49	0.18958681844862
S50_R3-T181_R1.top7.fa	524.371315505499	1057	49.76	11.41	231	0.493506493506494	114	55	0.244825590549201
S50_R3-T181_R2.top7.fa	460.481244018623	1057	47.02	-13.88	231	0.437229437229437	101	47	0.19047867093375
S50_R3-T181_R3.top7.fa	402.73999360848	1057	45.98	-11.52	231	0.380952380952381	88	43	0.145151144247774
S50_R3-T181_R4.top7.fa	428.292957817377	1057	40.11	-3.3	231	0.406926406926407	94	44	0.16488525490682
S50_R3-T201_R1.top7.fa	485.697133925383	1057	47.4	-2.59	231	0.458874458874459	106	50	0.210855259703771
S50_R3-T201_R2.top7.fa	550.361015798468	1057	45.7	-1.86	231	0.519480519480519	120	55	0.27048422553341
S50_R3-T201_R3.top7.fa	525.043465565662	1057	48.91	-3.68	231	0.493506493506494	114	44	0.245139413084018
S50_R3-T21_R1.top7.fa	269.244904786379	1057	40.11	0	231	0.255411255411255	59	30	0.0650597721329923
S50_R3-T21_R2.top7.fa	309.54093590093	1057	38.98	0.49	231	0.298701298701299	69	36	0.087474247450164
S50_R3-T21_R3.top7.fa	266.635758051508	1057	39.64	3.58	231	0.255411255411255	59	32	0.0644293034072539
S50_R3-T21_R4.top7.fa	447.339370029888	1057	51.47	-9.56	231	0.424242424242424	98	52	0.179546205109327
S50_R3-T221_R1.top7.fa	468.747884121147	1057	48.25	-15.69	231	0.437229437229437	101	44	0.193898177461474
S50_R3-T221_R3.top7.fa	471.412601898298	1057	46.74	-0.81	231	0.445887445887446	103	47	0.198861836347765
S50_R3-T221_R4.top7.fa	397.122635689138	1057	52.41	4.33	231	0.363636363636364	84	37	0.136620843102826
S50_R3-T241_R1.top7.fa	516.923550262989	1057	48.63	1.56	231	0.484848484848485	112	56	0.237114096620161
S50_R3-T241_R2.top7.fa	334.748676935262	1057	37.28	5.08	231	0.324675324675325	75	36	0.102823685306142
S50_R3-T241_R3.top7.fa	426.705230639149	1057	44.09	-13.73	231	0.393939393939394	91	39	0.159031220386713
S50_R3-T241_R4.top7.fa	477.00311618177	1057	45.22	-9.62	231	0.441558441558442	102	50	0.199266558750939
S50_R3-T261_R1.top7.fa	460.605159871311	1057	45.13	6.08	231	0.428571428571429	99	50	0.186757059009857
S50_R3-T261_R3.top7.fa	436.652142210877	1057	47.02	-11.47	231	0.406926406926407	94	48	0.168103393856756
S50_R3-T261_R4.top7.fa	508.125393449567	1057	45.79	-18.18	231	0.480519480519481	111	54	0.230997303783484
S50_R3-T281_R1.top7.fa	467.819719923539	1057	55.06	-12.71	231	0.432900432900433	100	47	0.191598258537615
S50_R3-T281_R2.top7.fa	468.477180006927	1057	37.65	-6.53	231	0.441558441558442	102	48	0.195704875600333
S50_R3-T281_R3.top7.fa	536.7656513137	1057	43.8	-12.74	231	0.502164502164502	116	52	0.255009135355676
S50_R3-T281_R4.top7.fa	454.8250488323	1057	49.1	-10.98	231	0.424242424242424	98	43	0.18255069188533
S50_R3-T301_R1.top7.fa	468.37003124993	1057	42.29	-5.15	231	0.437229437229437	101	48	0.193741878125393
S50_R3-T301_R3.top7.fa	478.406094934677	1057	48.25	-9.41	231	0.445887445887446	103	48	0.201811988427067
S50_R3-T301_R4.top7.fa	493.024279171479	1057	49.2	-6.15	231	0.45021645021645	104	47	0.209997768059704
S50_R3-T41_R1.top7.fa	395.295535457553	1057	40.78	9.51	231	0.380952380952381	88	43	0.142468094051468
S50_R3-T41_R2.top7.fa	469.941950910786	1057	46.64	-10.75	231	0.45021645021645	104	44	0.200166127669676
S50_R3-T41_R3.top7.fa	492.481315650349	1057	50.52	-3.37	231	0.458874458874459	106	52	0.213800470411387
S50_R3-T41_R4.top7.fa	409.226929827026	1057	48.44	9.38	231	0.385281385281385	89	39	0.149165107301991
S50_R3-T5_R1.top7.fa	86.3706064991543	453	47.9	-2.3	231	0.0865800865800866	20	15	0.0165076701736675
S50_R3-T5_R2.top7.fa	96.4918112670217	453	32.23	-1.37	231	0.0952380952380952	22	12	0.0202863053226157
S50_R3-T5_R3.top7.fa	201.33121521944	1057	45.51	-16.84	231	0.199134199134199	46	28	0.0379299246011714
S50_R3-T5_R4.top7.fa	110.877389608367	453	49.01	-6.31	231	0.108225108225108	25	15	0.0264894425829647
S50_R3-T61_R1.top7.fa	306.004487232395	1057	45.03	-1.26	231	0.294372294372294	68	36	0.0852216111587677
S50_R3-T61_R2.top7.fa	388.812410817445	1057	44.28	-0.43	231	0.367965367965368	85	41	0.135354306353778
S50_R3-T61_R3.top7.fa	360.58875867888	1057	43.52	-10.43	231	0.346320346320346	80	41	0.118144961007468
S50_R3-T61_R4.top7.fa	424.156767425906	1057	46.64	3.04	231	0.415584415584416	96	44	0.166767211264778
S50_R3-T81_R1.top7.fa	313.806934270548	1057	33.11	-6.29	231	0.285714285714286	66	31	0.0848241476606428
S50_R3-T81_R2.top7.fa	358.380171979904	1057	42.29	-4.7	231	0.337662337662338	78	44	0.114485796255974
S50_R3-T81_R3.top7.fa	417.616905972759	1057	45.13	6.92	231	0.38961038961039	90	41	0.153933666455943
S50_R3-T81_R4.top7.fa	444.602617091756	1057	47.49	15.14	231	0.41991341991342	97	42	0.176626873647546
