motif_id	motif_alt_id	sequence_name	start	stop	strand	score	p-value	q-value	matched_sequence
HOMEO0156_Prrx1_3442.1		chr2:204198499-204198649	114	130	-	10.9167	5.87e-05		TTAATTAATTATTTTGG
HOMEO0156_Prrx1_3442.1		chr2:204198499-204198649	115	131	+	12.9524	1.88e-05		CAAAATAATTAATTAAT
HOMEO0156_Prrx1_3442.1		chr2:204198499-204198649	118	134	-	14.619	6.16e-06		TTTATTAATTAATTATT
HOMEO0156_Prrx1_3442.1		chr2:204198499-204198649	119	135	+	13.0833	1.74e-05		ATAATTAATTAATAAAC
HOMEO0156_Prrx1_3442.1		chr2:204198549-204198699	64	80	-	10.9167	5.87e-05		TTAATTAATTATTTTGG
HOMEO0156_Prrx1_3442.1		chr2:204198549-204198699	65	81	+	12.9524	1.88e-05		CAAAATAATTAATTAAT
HOMEO0156_Prrx1_3442.1		chr2:204198549-204198699	68	84	-	14.619	6.16e-06		TTTATTAATTAATTATT
HOMEO0156_Prrx1_3442.1		chr2:204198549-204198699	69	85	+	13.0833	1.74e-05		ATAATTAATTAATAAAC
HOMEO0156_Prrx1_3442.1		chr2:204198599-204198749	14	30	-	10.9167	5.87e-05		TTAATTAATTATTTTGG
HOMEO0156_Prrx1_3442.1		chr2:204198599-204198749	15	31	+	12.9524	1.88e-05		CAAAATAATTAATTAAT
HOMEO0156_Prrx1_3442.1		chr2:204198599-204198749	18	34	-	14.619	6.16e-06		TTTATTAATTAATTATT
HOMEO0156_Prrx1_3442.1		chr2:204198599-204198749	19	35	+	13.0833	1.74e-05		ATAATTAATTAATAAAC
HOMEO0156_Prrx1_3442.1		chr2:204201899-204202049	98	114	+	15.5238	3.05e-06		agaattaattaacgaat
HOMEO0156_Prrx1_3442.1		chr2:204201949-204202099	48	64	+	15.5238	3.05e-06		agaattaattaacgaat
HOMEO0156_Prrx1_3442.1		chr2:204208349-204208499	121	137	-	9.83333	9.97e-05		TGATTTAATTAACATAT
HOMEO0156_Prrx1_3442.1		chr2:204208399-204208549	71	87	-	9.83333	9.97e-05		TGATTTAATTAACATAT
HOMEO0156_Prrx1_3442.1		chr2:204208449-204208599	21	37	-	9.83333	9.97e-05		TGATTTAATTAACATAT
HOMEO0156_Prrx1_3442.1		chr2:204212999-204213149	116	132	-	13.3929	1.43e-05		TAAGCTAATTACCTCCT
HOMEO0156_Prrx1_3442.1		chr2:204213049-204213199	66	82	-	13.3929	1.43e-05		TAAGCTAATTACCTCCT
HOMEO0156_Prrx1_3442.1		chr2:204213099-204213249	16	32	-	13.3929	1.43e-05		TAAGCTAATTACCTCCT
HOMEO0156_Prrx1_3442.1		chr2:204221899-204222049	111	127	-	12.5	2.47e-05		TTAAATAATTAATTTAT
HOMEO0156_Prrx1_3442.1		chr2:204221949-204222099	61	77	-	12.5	2.47e-05		TTAAATAATTAATTTAT
HOMEO0156_Prrx1_3442.1		chr2:204221999-204222149	11	27	-	12.5	2.47e-05		TTAAATAATTAATTTAT
HOMEO0156_Prrx1_3442.1		chr2:204232849-204232999	106	122	+	12.6905	2.21e-05		AAAACCAATTAAGTTGT
HOMEO0156_Prrx1_3442.1		chr2:204232899-204233049	56	72	+	12.6905	2.21e-05		AAAACCAATTAAGTTGT
HOMEO0156_Prrx1_3442.1		chr2:204232949-204233099	6	22	+	12.6905	2.21e-05		AAAACCAATTAAGTTGT
HOMEO0156_Prrx1_3442.1		chr2:204235999-204236149	117	133	-	11.7976	3.68e-05		CTAATCAATTAATATCT
HOMEO0156_Prrx1_3442.1		chr2:204236049-204236199	67	83	-	11.7976	3.68e-05		CTAATCAATTAATATCT
HOMEO0156_Prrx1_3442.1		chr2:204236099-204236249	17	33	-	11.7976	3.68e-05		CTAATCAATTAATATCT
HOMEO0156_Prrx1_3442.1		chr2:204239199-204239349	123	139	+	10.2262	8.27e-05		CTTCCCAATTAATTTCC
HOMEO0156_Prrx1_3442.1		chr2:204239249-204239399	73	89	+	10.2262	8.27e-05		CTTCCCAATTAATTTCC
HOMEO0156_Prrx1_3442.1		chr2:204239299-204239449	23	39	+	10.2262	8.27e-05		CTTCCCAATTAATTTCC
HOMEO0156_Prrx1_3442.1		chr2:204239299-204239449	90	106	-	12.0833	3.14e-05		AAAACAAATTAGTTACT
HOMEO0156_Prrx1_3442.1		chr2:204239349-204239499	40	56	-	12.0833	3.14e-05		AAAACAAATTAGTTACT
HOMEO0156_Prrx1_3442.1		chr2:204239799-204239949	92	108	-	15.4524	3.24e-06		CTTATTAATTAGCTTCC
HOMEO0156_Prrx1_3442.1		chr2:204239799-204239949	93	109	+	12.4643	2.52e-05		GAAGCTAATTAATAAGG
HOMEO0156_Prrx1_3442.1		chr2:204239849-204239999	42	58	-	15.4524	3.24e-06		CTTATTAATTAGCTTCC
HOMEO0156_Prrx1_3442.1		chr2:204239849-204239999	43	59	+	12.4643	2.52e-05		GAAGCTAATTAATAAGG
HOMEO0156_Prrx1_3442.1		chr2:204240749-204240899	115	131	-	17.4286	5.08e-07		AGGACTAATTAGCTGGT
HOMEO0156_Prrx1_3442.1		chr2:204240749-204240899	116	132	+	12.1071	3.1e-05		CCAGCTAATTAGTCCTT
HOMEO0156_Prrx1_3442.1		chr2:204240799-204240949	65	81	-	17.4286	5.08e-07		AGGACTAATTAGCTGGT
HOMEO0156_Prrx1_3442.1		chr2:204240799-204240949	66	82	+	12.1071	3.1e-05		CCAGCTAATTAGTCCTT
HOMEO0156_Prrx1_3442.1		chr2:204240849-204240999	15	31	-	17.4286	5.08e-07		AGGACTAATTAGCTGGT
HOMEO0156_Prrx1_3442.1		chr2:204240849-204240999	16	32	+	12.1071	3.1e-05		CCAGCTAATTAGTCCTT
HOMEO0156_Prrx1_3442.1		chr2:204243649-204243799	123	139	+	11.4048	4.55e-05		TGTACTAATTACCTGTG
HOMEO0156_Prrx1_3442.1		chr2:204243699-204243849	73	89	+	11.4048	4.55e-05		TGTACTAATTACCTGTG
HOMEO0156_Prrx1_3442.1		chr2:204243749-204243899	23	39	+	11.4048	4.55e-05		TGTACTAATTACCTGTG
HOMEO0156_Prrx1_3442.1		chr2:204262899-204263049	88	104	-	10.0119	9.16e-05		TTAACTAGTTAGTTTGG
HOMEO0156_Prrx1_3442.1		chr2:204262949-204263099	38	54	-	10.0119	9.16e-05		TTAACTAGTTAGTTTGG
HOMEO0156_Prrx1_3442.1		chr2:204266949-204267099	105	121	-	11.8571	3.56e-05		TTTACTAATTAGGGCCG
HOMEO0156_Prrx1_3442.1		chr2:204266949-204267099	106	122	+	11.2381	4.97e-05		ggccCTAATTAGTAAAC
HOMEO0156_Prrx1_3442.1		chr2:204266999-204267149	55	71	-	11.8571	3.56e-05		TTTACTAATTAGGGCCG
HOMEO0156_Prrx1_3442.1		chr2:204266999-204267149	56	72	+	11.2381	4.97e-05		ggccCTAATTAGTAAAC
HOMEO0156_Prrx1_3442.1		chr2:204267049-204267199	5	21	-	11.8571	3.56e-05		TTTACTAATTAGGGCCG
HOMEO0156_Prrx1_3442.1		chr2:204267049-204267199	6	22	+	11.2381	4.97e-05		ggccCTAATTAGTAAAC
HOMEO0156_Prrx1_3442.1		chr2:204274449-204274599	92	108	-	14.2857	7.83e-06		CTAGTCAATTAACTTCT
HOMEO0156_Prrx1_3442.1		chr2:204274449-204274599	93	109	+	10.8452	6.08e-05		gaagttaattgactagc
HOMEO0156_Prrx1_3442.1		chr2:204274499-204274649	42	58	-	14.2857	7.83e-06		CTAGTCAATTAACTTCT
HOMEO0156_Prrx1_3442.1		chr2:204274499-204274649	43	59	+	10.8452	6.08e-05		gaagttaattgactagc
HOMEO0156_Prrx1_3442.1		chr2:204275349-204275499	106	122	+	10.2738	8.08e-05		TTGTCTAATTAATGAAT
HOMEO0156_Prrx1_3442.1		chr2:204275399-204275549	56	72	+	10.2738	8.08e-05		TTGTCTAATTAATGAAT
HOMEO0156_Prrx1_3442.1		chr2:204275449-204275599	6	22	+	10.2738	8.08e-05		TTGTCTAATTAATGAAT
HOMEO0156_Prrx1_3442.1		chr2:204295849-204295999	127	143	-	10	9.21e-05		GTTATTAACTAGCTGTT
HOMEO0156_Prrx1_3442.1		chr2:204295899-204296049	77	93	-	10	9.21e-05		GTTATTAACTAGCTGTT
HOMEO0156_Prrx1_3442.1		chr2:204295949-204296099	27	43	-	10	9.21e-05		GTTATTAACTAGCTGTT
HOMEO0156_Prrx1_3442.1		chr2:204296999-204297149	102	118	+	9.85714	9.86e-05		TGTTCTAATTAAGAACT
HOMEO0156_Prrx1_3442.1		chr2:204297049-204297199	52	68	+	9.85714	9.86e-05		TGTTCTAATTAAGAACT
HOMEO0156_Prrx1_3442.1		chr2:204297099-204297249	2	18	+	9.85714	9.86e-05		TGTTCTAATTAAGAACT
HOMEO0156_Prrx1_3442.1		chr2:204300299-204300449	128	144	+	9.97619	9.32e-05		GTAATTAGTTAGCTCTG
HOMEO0156_Prrx1_3442.1		chr2:204300349-204300499	78	94	+	9.97619	9.32e-05		GTAATTAGTTAGCTCTG
HOMEO0156_Prrx1_3442.1		chr2:204300399-204300549	28	44	+	9.97619	9.32e-05		GTAATTAGTTAGCTCTG
HOMEO0156_Prrx1_3442.1		chr2:204301199-204301349	103	119	+	12.7976	2.07e-05		GTCACTAATTAAGCAAG
HOMEO0156_Prrx1_3442.1		chr2:204301249-204301399	53	69	+	12.7976	2.07e-05		GTCACTAATTAAGCAAG
HOMEO0156_Prrx1_3442.1		chr2:204301299-204301449	3	19	+	12.7976	2.07e-05		GTCACTAATTAAGCAAG
HOMEO0156_Prrx1_3442.1		chr2:204302349-204302499	92	108	+	12.9643	1.87e-05		TGTACTAATTAAGCACT
HOMEO0156_Prrx1_3442.1		chr2:204302399-204302549	42	58	+	12.9643	1.87e-05		TGTACTAATTAAGCACT
HOMEO0156_Prrx1_3442.1		chr2:204321449-204321599	115	131	-	10.2143	8.31e-05		TTAAATAATTAAATAAT
HOMEO0156_Prrx1_3442.1		chr2:204321499-204321649	65	81	-	10.2143	8.31e-05		TTAAATAATTAAATAAT
HOMEO0156_Prrx1_3442.1		chr2:204321499-204321649	106	122	-	9.96429	9.37e-05		GAATATAATTAGCTGTT
HOMEO0156_Prrx1_3442.1		chr2:204321549-204321699	15	31	-	10.2143	8.31e-05		TTAAATAATTAAATAAT
HOMEO0156_Prrx1_3442.1		chr2:204321549-204321699	56	72	-	9.96429	9.37e-05		GAATATAATTAGCTGTT
HOMEO0156_Prrx1_3442.1		chr2:204321599-204321749	6	22	-	9.96429	9.37e-05		GAATATAATTAGCTGTT
HOMEO0156_Prrx1_3442.1		chr7:5561159-5561309	120	136	-	10.5833	6.94e-05		ATATTTAATTAATTAAA
HOMEO0156_Prrx1_3442.1		chr7:5561159-5561309	121	137	+	13.25	1.56e-05		ttaattaattaaatatt
HOMEO0156_Prrx1_3442.1		chr7:5561209-5561359	70	86	-	10.5833	6.94e-05		ATATTTAATTAATTAAA
HOMEO0156_Prrx1_3442.1		chr7:5561209-5561359	71	87	+	13.25	1.56e-05		ttaattaattaaatatt
HOMEO0156_Prrx1_3442.1		chr7:5561209-5561359	86	102	-	10.119	8.7e-05		ATGACTAATTACTTAAA
HOMEO0156_Prrx1_3442.1		chr7:5561259-5561409	20	36	-	10.5833	6.94e-05		ATATTTAATTAATTAAA
HOMEO0156_Prrx1_3442.1		chr7:5561259-5561409	21	37	+	13.25	1.56e-05		ttaattaattaaatatt
HOMEO0156_Prrx1_3442.1		chr7:5561259-5561409	36	52	-	10.119	8.7e-05		ATGACTAATTACTTAAA
HOMEO0156_Prrx1_3442.1		chr7:5573809-5573959	114	130	-	9.94048	9.48e-05		CCTCCCAATTAGCTGGG
HOMEO0156_Prrx1_3442.1		chr7:5573859-5574009	64	80	-	9.94048	9.48e-05		CCTCCCAATTAGCTGGG
HOMEO0156_Prrx1_3442.1		chr7:5573909-5574059	14	30	-	9.94048	9.48e-05		CCTCCCAATTAGCTGGG
HOMEO0156_Prrx1_3442.1		chr7:5594359-5594509	133	149	-	11.2857	4.84e-05		ACCTCTAATTAGCTCTG
HOMEO0156_Prrx1_3442.1		chr7:5594409-5594559	83	99	-	11.2857	4.84e-05		ACCTCTAATTAGCTCTG
HOMEO0156_Prrx1_3442.1		chr7:5594459-5594609	33	49	-	11.2857	4.84e-05		ACCTCTAATTAGCTCTG
HOMEO0156_Prrx1_3442.1		chr7:5596909-5597059	132	148	-	10.3571	7.76e-05		CCGGCTAATTGGTTTCT
HOMEO0156_Prrx1_3442.1		chr7:5596909-5597059	133	149	+	10.869	6.01e-05		gaaaccaattagccggg
HOMEO0156_Prrx1_3442.1		chr7:5596959-5597109	82	98	-	10.3571	7.76e-05		CCGGCTAATTGGTTTCT
HOMEO0156_Prrx1_3442.1		chr7:5596959-5597109	83	99	+	10.869	6.01e-05		gaaaccaattagccggg
HOMEO0156_Prrx1_3442.1		chr7:5597009-5597159	32	48	-	10.3571	7.76e-05		CCGGCTAATTGGTTTCT
HOMEO0156_Prrx1_3442.1		chr7:5597009-5597159	33	49	+	10.869	6.01e-05		gaaaccaattagccggg
HOMEO0156_Prrx1_3442.1		chr7:5607659-5607809	134	150	+	11.3452	4.7e-05		tgaataaattagctcct
HOMEO0156_Prrx1_3442.1		chr7:5607709-5607859	84	100	+	11.3452	4.7e-05		tgaataaattagctcct
HOMEO0156_Prrx1_3442.1		chr7:5607759-5607909	34	50	+	11.3452	4.7e-05		tgaataaattagctcct
HOMEO0156_Prrx1_3442.1		chr7:5613659-5613809	128	144	-	9.97619	9.32e-05		ACAAACAATTAGCTGCG
HOMEO0156_Prrx1_3442.1		chr7:5613709-5613859	78	94	-	9.97619	9.32e-05		ACAAACAATTAGCTGCG
HOMEO0156_Prrx1_3442.1		chr7:5613759-5613909	28	44	-	9.97619	9.32e-05		ACAAACAATTAGCTGCG
HOMEO0156_Prrx1_3442.1		chr7:5617059-5617209	106	122	+	11.2024	5.06e-05		ggccCCAATTAGGttgt
HOMEO0156_Prrx1_3442.1		chr7:5617109-5617259	56	72	+	11.2024	5.06e-05		ggccCCAATTAGGttgt
HOMEO0156_Prrx1_3442.1		chr7:5617159-5617309	6	22	+	11.2024	5.06e-05		ggccCCAATTAGGttgt
HOMEO0156_Prrx1_3442.1		chr7:5623909-5624059	116	132	-	11.131	5.25e-05		CTAAATAATTACGTCCT
HOMEO0156_Prrx1_3442.1		chr7:5623959-5624109	66	82	-	11.131	5.25e-05		CTAAATAATTACGTCCT
HOMEO0156_Prrx1_3442.1		chr7:5624009-5624159	16	32	-	11.131	5.25e-05		CTAAATAATTACGTCCT
HOMEO0156_Prrx1_3442.1		chr7:5642359-5642509	127	143	-	11.1429	5.22e-05		TTTTTTAATTAGCTGGG
HOMEO0156_Prrx1_3442.1		chr7:5642409-5642559	77	93	-	11.1429	5.22e-05		TTTTTTAATTAGCTGGG
HOMEO0156_Prrx1_3442.1		chr7:5642459-5642609	27	43	-	11.1429	5.22e-05		TTTTTTAATTAGCTGGG
HOMEO0156_Prrx1_3442.1		chr7:5655809-5655959	90	106	-	12.1429	3.03e-05		CTTTTTAATTAGCTCTT
HOMEO0156_Prrx1_3442.1		chr7:5655809-5655959	91	107	+	11.2024	5.06e-05		AGAGCTAATTAAAAAGT
HOMEO0156_Prrx1_3442.1		chr7:5655859-5656009	40	56	-	12.1429	3.03e-05		CTTTTTAATTAGCTCTT
HOMEO0156_Prrx1_3442.1		chr7:5655859-5656009	41	57	+	11.2024	5.06e-05		AGAGCTAATTAAAAAGT
