motif_id	motif_alt_id	sequence_name	start	stop	strand	score	p-value	q-value	matched_sequence
HOMEO0040_Hlx1_2350.1		chr2:204181299-204181449	92	106	+	10.5638	7.54e-05		CCACTATAGATTACA
HOMEO0040_Hlx1_2350.1		chr2:204181349-204181499	42	56	+	10.5638	7.54e-05		CCACTATAGATTACA
HOMEO0040_Hlx1_2350.1		chr2:204188649-204188799	99	113	+	10.3893	8.68e-05		TTTTATTTAATTAAA
HOMEO0040_Hlx1_2350.1		chr2:204188649-204188799	100	114	-	10.3826	8.72e-05		ATTTAATTAAATAAA
HOMEO0040_Hlx1_2350.1		chr2:204188649-204188799	104	118	-	10.4564	8.23e-05		AGTTATTTAATTAAA
HOMEO0040_Hlx1_2350.1		chr2:204188699-204188849	49	63	+	10.3893	8.68e-05		TTTTATTTAATTAAA
HOMEO0040_Hlx1_2350.1		chr2:204188699-204188849	50	64	-	10.3826	8.72e-05		ATTTAATTAAATAAA
HOMEO0040_Hlx1_2350.1		chr2:204188699-204188849	54	68	-	10.4564	8.23e-05		AGTTATTTAATTAAA
HOMEO0040_Hlx1_2350.1		chr2:204188749-204188899	4	18	-	10.4564	8.23e-05		AGTTATTTAATTAAA
HOMEO0040_Hlx1_2350.1		chr2:204198499-204198649	117	131	+	13.4497	5.19e-06		AAATAATTAATTAAT
HOMEO0040_Hlx1_2350.1		chr2:204198499-204198649	118	132	-	12.7718	1.04e-05		TATTAATTAATTATT
HOMEO0040_Hlx1_2350.1		chr2:204198549-204198699	67	81	+	13.4497	5.19e-06		AAATAATTAATTAAT
HOMEO0040_Hlx1_2350.1		chr2:204198549-204198699	68	82	-	12.7718	1.04e-05		TATTAATTAATTATT
HOMEO0040_Hlx1_2350.1		chr2:204198599-204198749	17	31	+	13.4497	5.19e-06		AAATAATTAATTAAT
HOMEO0040_Hlx1_2350.1		chr2:204198599-204198749	18	32	-	12.7718	1.04e-05		TATTAATTAATTATT
HOMEO0040_Hlx1_2350.1		chr2:204201899-204202049	97	111	-	11.1342	4.69e-05		CGTTAATTAATTCTA
HOMEO0040_Hlx1_2350.1		chr2:204201949-204202099	47	61	-	11.1342	4.69e-05		CGTTAATTAATTCTA
HOMEO0040_Hlx1_2350.1		chr2:204203249-204203399	99	113	+	10.2886	9.44e-05		tctttataaattacc
HOMEO0040_Hlx1_2350.1		chr2:204203299-204203449	49	63	+	10.2886	9.44e-05		tctttataaattacc
HOMEO0040_Hlx1_2350.1		chr2:204204949-204205099	101	115	+	10.3289	9.14e-05		ctatagttaataata
HOMEO0040_Hlx1_2350.1		chr2:204204999-204205149	51	65	+	10.3289	9.14e-05		ctatagttaataata
HOMEO0040_Hlx1_2350.1		chr2:204205049-204205199	1	15	+	10.3289	9.14e-05		ctatagttaataata
HOMEO0040_Hlx1_2350.1		chr2:204211699-204211849	91	105	-	10.4966	7.98e-05		TCATAATTTAATAGC
HOMEO0040_Hlx1_2350.1		chr2:204211749-204211899	41	55	-	10.4966	7.98e-05		TCATAATTTAATAGC
HOMEO0040_Hlx1_2350.1		chr2:204213199-204213349	101	115	+	10.4698	8.14e-05		CCTCAATTAAAAACA
HOMEO0040_Hlx1_2350.1		chr2:204213249-204213399	51	65	+	10.4698	8.14e-05		CCTCAATTAAAAACA
HOMEO0040_Hlx1_2350.1		chr2:204213299-204213449	1	15	+	10.4698	8.14e-05		CCTCAATTAAAAACA
HOMEO0040_Hlx1_2350.1		chr2:204217299-204217449	108	122	-	13.6577	4.19e-06		CAATAATAAATTAAC
HOMEO0040_Hlx1_2350.1		chr2:204217349-204217499	58	72	-	13.6577	4.19e-06		CAATAATAAATTAAC
HOMEO0040_Hlx1_2350.1		chr2:204217399-204217549	8	22	-	13.6577	4.19e-06		CAATAATAAATTAAC
HOMEO0040_Hlx1_2350.1		chr2:204223099-204223249	118	132	+	10.3087	9.29e-05		TAGTTATTAATTAAA
HOMEO0040_Hlx1_2350.1		chr2:204223099-204223249	119	133	-	10.2617	9.64e-05		GTTTAATTAATAACT
HOMEO0040_Hlx1_2350.1		chr2:204223149-204223299	68	82	+	10.3087	9.29e-05		TAGTTATTAATTAAA
HOMEO0040_Hlx1_2350.1		chr2:204223149-204223299	69	83	-	10.2617	9.64e-05		GTTTAATTAATAACT
HOMEO0040_Hlx1_2350.1		chr2:204223199-204223349	18	32	+	10.3087	9.29e-05		TAGTTATTAATTAAA
HOMEO0040_Hlx1_2350.1		chr2:204223199-204223349	19	33	-	10.2617	9.64e-05		GTTTAATTAATAACT
HOMEO0040_Hlx1_2350.1		chr2:204224099-204224249	121	135	-	11.5302	3.32e-05		ACATATTTGAATATA
HOMEO0040_Hlx1_2350.1		chr2:204224149-204224299	71	85	-	11.5302	3.32e-05		ACATATTTGAATATA
HOMEO0040_Hlx1_2350.1		chr2:204224199-204224349	21	35	-	11.5302	3.32e-05		ACATATTTGAATATA
HOMEO0040_Hlx1_2350.1		chr2:204226899-204227049	100	114	-	10.557	7.58e-05		TTATAATTAAAAACA
HOMEO0040_Hlx1_2350.1		chr2:204226949-204227099	50	64	-	10.557	7.58e-05		TTATAATTAAAAACA
HOMEO0040_Hlx1_2350.1		chr2:204229949-204230099	98	112	+	11.1611	4.57e-05		ccattttaaattact
HOMEO0040_Hlx1_2350.1		chr2:204229999-204230149	48	62	+	11.1611	4.57e-05		ccattttaaattact
HOMEO0040_Hlx1_2350.1		chr2:204235999-204236149	121	135	-	11.3826	3.77e-05		TCCTAATCAATTAAT
HOMEO0040_Hlx1_2350.1		chr2:204236049-204236199	71	85	-	11.3826	3.77e-05		TCCTAATCAATTAAT
HOMEO0040_Hlx1_2350.1		chr2:204236099-204236249	21	35	-	11.3826	3.77e-05		TCCTAATCAATTAAT
HOMEO0040_Hlx1_2350.1		chr2:204239349-204239499	137	151	+	10.6242	7.18e-05		ACATATTTAAAAACA
HOMEO0040_Hlx1_2350.1		chr2:204239399-204239549	87	101	+	10.6242	7.18e-05		ACATATTTAAAAACA
HOMEO0040_Hlx1_2350.1		chr2:204239449-204239599	37	51	+	10.6242	7.18e-05		ACATATTTAAAAACA
HOMEO0040_Hlx1_2350.1		chr2:204239799-204239949	96	110	-	11.6107	3.08e-05		TCCTTATTAATTAGC
HOMEO0040_Hlx1_2350.1		chr2:204239849-204239999	46	60	-	11.6107	3.08e-05		TCCTTATTAATTAGC
HOMEO0040_Hlx1_2350.1		chr2:204245299-204245449	93	107	-	11.4295	3.63e-05		TCATATTAAATTAAA
HOMEO0040_Hlx1_2350.1		chr2:204245349-204245499	43	57	-	11.4295	3.63e-05		TCATATTAAATTAAA
HOMEO0040_Hlx1_2350.1		chr2:204246199-204246349	91	105	+	11.745	2.73e-05		cAATATTTAATTTTA
HOMEO0040_Hlx1_2350.1		chr2:204246249-204246399	41	55	+	11.745	2.73e-05		cAATATTTAATTTTA
HOMEO0040_Hlx1_2350.1		chr2:204250049-204250199	113	127	+	11.1879	4.46e-05		TAATAATTAATGAGC
HOMEO0040_Hlx1_2350.1		chr2:204250099-204250249	63	77	+	11.1879	4.46e-05		TAATAATTAATGAGC
HOMEO0040_Hlx1_2350.1		chr2:204250149-204250299	13	27	+	11.1879	4.46e-05		TAATAATTAATGAGC
HOMEO0040_Hlx1_2350.1		chr2:204258149-204258299	127	141	+	10.2953	9.4e-05		TTATTTTTAATTACC
HOMEO0040_Hlx1_2350.1		chr2:204258199-204258349	77	91	+	10.2953	9.4e-05		TTATTTTTAATTACC
HOMEO0040_Hlx1_2350.1		chr2:204258249-204258399	27	41	+	10.2953	9.4e-05		TTATTTTTAATTACC
HOMEO0040_Hlx1_2350.1		chr2:204259799-204259949	130	144	+	10.7517	6.46e-05		TGATTATTAATTAAA
HOMEO0040_Hlx1_2350.1		chr2:204259849-204259999	80	94	+	10.7517	6.46e-05		TGATTATTAATTAAA
HOMEO0040_Hlx1_2350.1		chr2:204259899-204260049	30	44	+	10.7517	6.46e-05		TGATTATTAATTAAA
HOMEO0040_Hlx1_2350.1		chr2:204260449-204260599	112	126	-	11.2953	4.08e-05		CCATAATTAAATCAC
HOMEO0040_Hlx1_2350.1		chr2:204260499-204260649	62	76	-	11.2953	4.08e-05		CCATAATTAAATCAC
HOMEO0040_Hlx1_2350.1		chr2:204260549-204260699	12	26	-	11.2953	4.08e-05		CCATAATTAAATCAC
HOMEO0040_Hlx1_2350.1		chr2:204262949-204263099	137	151	+	11.1208	4.75e-05		TAGTAATTAAATATT
HOMEO0040_Hlx1_2350.1		chr2:204262999-204263149	87	101	+	11.1208	4.75e-05		TAGTAATTAAATATT
HOMEO0040_Hlx1_2350.1		chr2:204262999-204263149	88	102	-	13.2483	6.46e-06		TAATATTTAATTACT
HOMEO0040_Hlx1_2350.1		chr2:204263049-204263199	37	51	+	11.1208	4.75e-05		TAGTAATTAAATATT
HOMEO0040_Hlx1_2350.1		chr2:204263049-204263199	38	52	-	13.2483	6.46e-06		TAATATTTAATTACT
HOMEO0040_Hlx1_2350.1		chr2:204263049-204263199	110	124	-	12.2685	1.69e-05		CCACAGTTAATTATC
HOMEO0040_Hlx1_2350.1		chr2:204263099-204263249	60	74	-	12.2685	1.69e-05		CCACAGTTAATTATC
HOMEO0040_Hlx1_2350.1		chr2:204263149-204263299	10	24	-	12.2685	1.69e-05		CCACAGTTAATTATC
HOMEO0040_Hlx1_2350.1		chr2:204266449-204266599	113	127	-	10.2953	9.4e-05		AAATAATAAATAATA
HOMEO0040_Hlx1_2350.1		chr2:204266499-204266649	63	77	-	10.2953	9.4e-05		AAATAATAAATAATA
HOMEO0040_Hlx1_2350.1		chr2:204266549-204266699	13	27	-	10.2953	9.4e-05		AAATAATAAATAATA
HOMEO0040_Hlx1_2350.1		chr2:204266599-204266749	90	104	-	13.0537	7.85e-06		TCACAATTAATTAAA
HOMEO0040_Hlx1_2350.1		chr2:204266649-204266799	40	54	-	13.0537	7.85e-06		TCACAATTAATTAAA
HOMEO0040_Hlx1_2350.1		chr2:204267399-204267549	92	106	+	10.6644	6.95e-05		ATGTATTTAATTAAA
HOMEO0040_Hlx1_2350.1		chr2:204267399-204267549	93	107	-	11.9396	2.3e-05		TTTTAATTAAATACA
HOMEO0040_Hlx1_2350.1		chr2:204267449-204267599	42	56	+	10.6644	6.95e-05		ATGTATTTAATTAAA
HOMEO0040_Hlx1_2350.1		chr2:204267449-204267599	43	57	-	11.9396	2.3e-05		TTTTAATTAAATACA
HOMEO0040_Hlx1_2350.1		chr2:204267899-204268049	106	120	+	10.7047	6.73e-05		ACatatttaataatt
HOMEO0040_Hlx1_2350.1		chr2:204267949-204268099	56	70	+	10.7047	6.73e-05		ACatatttaataatt
HOMEO0040_Hlx1_2350.1		chr2:204267999-204268149	6	20	+	10.7047	6.73e-05		ACatatttaataatt
HOMEO0040_Hlx1_2350.1		chr2:204268549-204268699	98	112	-	10.8054	6.15e-05		CTACAATAAAATACA
HOMEO0040_Hlx1_2350.1		chr2:204268599-204268749	48	62	-	10.8054	6.15e-05		CTACAATAAAATACA
HOMEO0040_Hlx1_2350.1		chr2:204269549-204269699	126	140	+	11.1678	4.54e-05		ACATATTTAAATGCA
HOMEO0040_Hlx1_2350.1		chr2:204269599-204269749	76	90	+	11.1678	4.54e-05		ACATATTTAAATGCA
HOMEO0040_Hlx1_2350.1		chr2:204269649-204269799	26	40	+	11.1678	4.54e-05		ACATATTTAAATGCA
HOMEO0040_Hlx1_2350.1		chr2:204274249-204274399	97	111	+	10.4698	8.14e-05		AAATCATTAATTGCC
HOMEO0040_Hlx1_2350.1		chr2:204274299-204274449	47	61	+	10.4698	8.14e-05		AAATCATTAATTGCC
HOMEO0040_Hlx1_2350.1		chr2:204275349-204275499	109	123	-	11.9463	2.29e-05		CATTCATTAATTAGA
HOMEO0040_Hlx1_2350.1		chr2:204275399-204275549	59	73	-	11.9463	2.29e-05		CATTCATTAATTAGA
HOMEO0040_Hlx1_2350.1		chr2:204275449-204275599	9	23	-	11.9463	2.29e-05		CATTCATTAATTAGA
HOMEO0040_Hlx1_2350.1		chr2:204277599-204277749	130	144	-	10.3826	8.72e-05		CCATCATTAATCATT
HOMEO0040_Hlx1_2350.1		chr2:204277649-204277799	80	94	-	10.3826	8.72e-05		CCATCATTAATCATT
HOMEO0040_Hlx1_2350.1		chr2:204277699-204277849	30	44	-	10.3826	8.72e-05		CCATCATTAATCATT
HOMEO0040_Hlx1_2350.1		chr2:204279799-204279949	116	130	-	10.2953	9.4e-05		CAGTCATTAAATAGA
HOMEO0040_Hlx1_2350.1		chr2:204279849-204279999	66	80	-	10.2953	9.4e-05		CAGTCATTAAATAGA
HOMEO0040_Hlx1_2350.1		chr2:204279899-204280049	16	30	-	10.2953	9.4e-05		CAGTCATTAAATAGA
HOMEO0040_Hlx1_2350.1		chr2:204286999-204287149	100	114	-	10.7248	6.62e-05		TTAAAATTGATTACA
HOMEO0040_Hlx1_2350.1		chr2:204287049-204287199	50	64	-	10.7248	6.62e-05		TTAAAATTGATTACA
HOMEO0040_Hlx1_2350.1		chr2:204289149-204289299	132	146	-	12.1208	1.95e-05		AAATAATAAATTAGC
HOMEO0040_Hlx1_2350.1		chr2:204289199-204289349	82	96	-	12.1208	1.95e-05		AAATAATAAATTAGC
HOMEO0040_Hlx1_2350.1		chr2:204289249-204289399	32	46	-	12.1208	1.95e-05		AAATAATAAATTAGC
HOMEO0040_Hlx1_2350.1		chr2:204291549-204291699	98	112	+	10.443	8.32e-05		GCACATTTGATTAAA
HOMEO0040_Hlx1_2350.1		chr2:204291599-204291749	48	62	+	10.443	8.32e-05		GCACATTTGATTAAA
HOMEO0040_Hlx1_2350.1		chr2:204292449-204292599	102	116	+	11.557	3.24e-05		CAACATTTAAATACC
HOMEO0040_Hlx1_2350.1		chr2:204292499-204292649	52	66	+	11.557	3.24e-05		CAACATTTAAATACC
HOMEO0040_Hlx1_2350.1		chr2:204292549-204292699	2	16	+	11.557	3.24e-05		CAACATTTAAATACC
HOMEO0040_Hlx1_2350.1		chr2:204299399-204299549	93	107	+	12.2148	1.77e-05		ACATAATTAATTCTC
HOMEO0040_Hlx1_2350.1		chr2:204299449-204299599	43	57	+	12.2148	1.77e-05		ACATAATTAATTCTC
HOMEO0040_Hlx1_2350.1		chr2:204300299-204300449	127	141	-	10.9262	5.57e-05		AGCTAACTAATTACA
HOMEO0040_Hlx1_2350.1		chr2:204300349-204300499	77	91	-	10.9262	5.57e-05		AGCTAACTAATTACA
HOMEO0040_Hlx1_2350.1		chr2:204300399-204300549	27	41	-	10.9262	5.57e-05		AGCTAACTAATTACA
HOMEO0040_Hlx1_2350.1		chr2:204317249-204317399	102	116	+	10.4832	8.06e-05		ACATTATAAATTAAA
HOMEO0040_Hlx1_2350.1		chr2:204317299-204317449	52	66	+	10.4832	8.06e-05		ACATTATAAATTAAA
HOMEO0040_Hlx1_2350.1		chr2:204317349-204317499	2	16	+	10.4832	8.06e-05		ACATTATAAATTAAA
HOMEO0040_Hlx1_2350.1		chr2:204318799-204318949	95	109	+	11.1074	4.8e-05		TTATAATCAAATACA
HOMEO0040_Hlx1_2350.1		chr2:204318799-204318949	96	110	-	10.4228	8.45e-05		ATGTATTTGATTATA
HOMEO0040_Hlx1_2350.1		chr2:204318849-204318999	45	59	+	11.1074	4.8e-05		TTATAATCAAATACA
HOMEO0040_Hlx1_2350.1		chr2:204318849-204318999	46	60	-	10.4228	8.45e-05		ATGTATTTGATTATA
HOMEO0040_Hlx1_2350.1		chr2:204320849-204320999	101	115	+	11.2953	4.08e-05		CAGTAGTTAAATACC
HOMEO0040_Hlx1_2350.1		chr2:204320899-204321049	51	65	+	11.2953	4.08e-05		CAGTAGTTAAATACC
HOMEO0040_Hlx1_2350.1		chr2:204320949-204321099	1	15	+	11.2953	4.08e-05		CAGTAGTTAAATACC
HOMEO0040_Hlx1_2350.1		chr2:204321449-204321599	114	128	+	11.094	4.86e-05		aattatttaattatt
HOMEO0040_Hlx1_2350.1		chr2:204321449-204321599	115	129	-	11.604	3.1e-05		AAATAATTAAATAAT
HOMEO0040_Hlx1_2350.1		chr2:204321449-204321599	119	133	-	11.255	4.22e-05		CCTTAAATAATTAAA
HOMEO0040_Hlx1_2350.1		chr2:204321499-204321649	64	78	+	11.094	4.86e-05		aattatttaattatt
HOMEO0040_Hlx1_2350.1		chr2:204321499-204321649	65	79	-	11.604	3.1e-05		AAATAATTAAATAAT
HOMEO0040_Hlx1_2350.1		chr2:204321499-204321649	69	83	-	11.255	4.22e-05		CCTTAAATAATTAAA
HOMEO0040_Hlx1_2350.1		chr2:204321549-204321699	14	28	+	11.094	4.86e-05		aattatttaattatt
HOMEO0040_Hlx1_2350.1		chr2:204321549-204321699	15	29	-	11.604	3.1e-05		AAATAATTAAATAAT
HOMEO0040_Hlx1_2350.1		chr2:204321549-204321699	19	33	-	11.255	4.22e-05		CCTTAAATAATTAAA
HOMEO0040_Hlx1_2350.1		chr7:5506859-5507009	133	147	+	10.2148	9.99e-05		taataataaataata
HOMEO0040_Hlx1_2350.1		chr7:5506909-5507059	83	97	+	10.2148	9.99e-05		taataataaataata
HOMEO0040_Hlx1_2350.1		chr7:5506909-5507059	90	104	+	10.2953	9.4e-05		aaataataaataata
HOMEO0040_Hlx1_2350.1		chr7:5506959-5507109	33	47	+	10.2148	9.99e-05		taataataaataata
HOMEO0040_Hlx1_2350.1		chr7:5506959-5507109	40	54	+	10.2953	9.4e-05		aaataataaataata
HOMEO0040_Hlx1_2350.1		chr7:5514859-5515009	101	115	+	10.349	8.97e-05		taataataaaataaa
HOMEO0040_Hlx1_2350.1		chr7:5514909-5515059	51	65	+	10.349	8.97e-05		taataataaaataaa
HOMEO0040_Hlx1_2350.1		chr7:5514959-5515109	1	15	+	10.349	8.97e-05		taataataaaataaa
HOMEO0040_Hlx1_2350.1		chr7:5533959-5534109	135	149	+	10.4295	8.41e-05		aaataataaaataaa
HOMEO0040_Hlx1_2350.1		chr7:5534009-5534159	85	99	+	10.4295	8.41e-05		aaataataaaataaa
HOMEO0040_Hlx1_2350.1		chr7:5534059-5534209	35	49	+	10.4295	8.41e-05		aaataataaaataaa
HOMEO0040_Hlx1_2350.1		chr7:5556209-5556359	120	134	+	11.5168	3.36e-05		ccttaactaattgca
HOMEO0040_Hlx1_2350.1		chr7:5556259-5556409	70	84	+	11.5168	3.36e-05		ccttaactaattgca
HOMEO0040_Hlx1_2350.1		chr7:5556259-5556409	101	115	+	13.7584	3.77e-06		ccttaactaattaca
HOMEO0040_Hlx1_2350.1		chr7:5556309-5556459	20	34	+	11.5168	3.36e-05		ccttaactaattgca
HOMEO0040_Hlx1_2350.1		chr7:5556309-5556459	51	65	+	13.7584	3.77e-06		ccttaactaattaca
HOMEO0040_Hlx1_2350.1		chr7:5556359-5556509	1	15	+	13.7584	3.77e-06		ccttaactaattaca
HOMEO0040_Hlx1_2350.1		chr7:5561159-5561309	102	116	-	15.0201	8.79e-07		GCATATTTAATTACC
HOMEO0040_Hlx1_2350.1		chr7:5561159-5561309	119	133	+	12.1477	1.9e-05		TTttaattaattaaa
HOMEO0040_Hlx1_2350.1		chr7:5561159-5561309	120	134	-	12.2282	1.75e-05		ATTTAATTAATTAAA
HOMEO0040_Hlx1_2350.1		chr7:5561159-5561309	123	137	+	11.0067	5.21e-05		aattaattaaatatt
HOMEO0040_Hlx1_2350.1		chr7:5561159-5561309	124	138	-	11.6913	2.87e-05		AAATATTTAATTAAT
HOMEO0040_Hlx1_2350.1		chr7:5561209-5561359	52	66	-	15.0201	8.79e-07		GCATATTTAATTACC
HOMEO0040_Hlx1_2350.1		chr7:5561209-5561359	69	83	+	12.1477	1.9e-05		TTttaattaattaaa
HOMEO0040_Hlx1_2350.1		chr7:5561209-5561359	70	84	-	12.2282	1.75e-05		ATTTAATTAATTAAA
HOMEO0040_Hlx1_2350.1		chr7:5561209-5561359	73	87	+	11.0067	5.21e-05		aattaattaaatatt
HOMEO0040_Hlx1_2350.1		chr7:5561209-5561359	74	88	-	11.6913	2.87e-05		AAATATTTAATTAAT
HOMEO0040_Hlx1_2350.1		chr7:5561209-5561359	99	113	+	11.557	3.24e-05		tcatatttgattaat
HOMEO0040_Hlx1_2350.1		chr7:5561209-5561359	107	121	+	11.7047	2.84e-05		gattaattaaataTC
HOMEO0040_Hlx1_2350.1		chr7:5561209-5561359	108	122	-	10.9262	5.57e-05		AGATATTTAATTAAT
HOMEO0040_Hlx1_2350.1		chr7:5561209-5561359	121	135	+	11.7919	2.62e-05		CTGCATTTAATTACA
HOMEO0040_Hlx1_2350.1		chr7:5561209-5561359	122	136	-	11.7047	2.84e-05		CTGTAATTAAATGCA
HOMEO0040_Hlx1_2350.1		chr7:5561259-5561409	2	16	-	15.0201	8.79e-07		GCATATTTAATTACC
HOMEO0040_Hlx1_2350.1		chr7:5561259-5561409	19	33	+	12.1477	1.9e-05		TTttaattaattaaa
HOMEO0040_Hlx1_2350.1		chr7:5561259-5561409	20	34	-	12.2282	1.75e-05		ATTTAATTAATTAAA
HOMEO0040_Hlx1_2350.1		chr7:5561259-5561409	23	37	+	11.0067	5.21e-05		aattaattaaatatt
HOMEO0040_Hlx1_2350.1		chr7:5561259-5561409	24	38	-	11.6913	2.87e-05		AAATATTTAATTAAT
HOMEO0040_Hlx1_2350.1		chr7:5561259-5561409	49	63	+	11.557	3.24e-05		tcatatttgattaat
HOMEO0040_Hlx1_2350.1		chr7:5561259-5561409	57	71	+	11.7047	2.84e-05		gattaattaaataTC
HOMEO0040_Hlx1_2350.1		chr7:5561259-5561409	58	72	-	10.9262	5.57e-05		AGATATTTAATTAAT
HOMEO0040_Hlx1_2350.1		chr7:5561259-5561409	71	85	+	11.7919	2.62e-05		CTGCATTTAATTACA
HOMEO0040_Hlx1_2350.1		chr7:5561259-5561409	72	86	-	11.7047	2.84e-05		CTGTAATTAAATGCA
HOMEO0040_Hlx1_2350.1		chr7:5561309-5561459	7	21	+	11.7047	2.84e-05		gattaattaaataTC
HOMEO0040_Hlx1_2350.1		chr7:5561309-5561459	8	22	-	10.9262	5.57e-05		AGATATTTAATTAAT
HOMEO0040_Hlx1_2350.1		chr7:5561309-5561459	21	35	+	11.7919	2.62e-05		CTGCATTTAATTACA
HOMEO0040_Hlx1_2350.1		chr7:5561309-5561459	22	36	-	11.7047	2.84e-05		CTGTAATTAAATGCA
HOMEO0040_Hlx1_2350.1		chr7:5618209-5618359	101	115	-	11.7047	2.84e-05		CCACAAATAATTACC
HOMEO0040_Hlx1_2350.1		chr7:5618259-5618409	51	65	-	11.7047	2.84e-05		CCACAAATAATTACC
HOMEO0040_Hlx1_2350.1		chr7:5618309-5618459	1	15	-	11.7047	2.84e-05		CCACAAATAATTACC
HOMEO0040_Hlx1_2350.1		chr7:5621009-5621159	100	114	-	10.3289	9.14e-05		CAACAATTAATTTTT
HOMEO0040_Hlx1_2350.1		chr7:5621059-5621209	50	64	-	10.3289	9.14e-05		CAACAATTAATTTTT
HOMEO0040_Hlx1_2350.1		chr7:5648909-5649059	93	107	+	10.349	8.97e-05		taataataaaataaa
HOMEO0040_Hlx1_2350.1		chr7:5648959-5649109	43	57	+	10.349	8.97e-05		taataataaaataaa
