motif_id	motif_alt_id	sequence_name	start	stop	strand	score	p-value	q-value	matched_sequence
HOMEO0146_Pou2f2_3748.1		chr2:204182799-204182949	94	109	-	10.0602	9.59e-05		TCTTATGCTAAAGAAT
HOMEO0146_Pou2f2_3748.1		chr2:204182849-204182999	44	59	-	10.0602	9.59e-05		TCTTATGCTAAAGAAT
HOMEO0146_Pou2f2_3748.1		chr2:204188449-204188599	134	149	-	10.6024	7.35e-05		CTAAATGCAAAGTAGG
HOMEO0146_Pou2f2_3748.1		chr2:204188499-204188649	84	99	-	10.6024	7.35e-05		CTAAATGCAAAGTAGG
HOMEO0146_Pou2f2_3748.1		chr2:204188549-204188699	34	49	-	10.6024	7.35e-05		CTAAATGCAAAGTAGG
HOMEO0146_Pou2f2_3748.1		chr2:204188799-204188949	105	120	+	12.3373	2.89e-05		TTATATgtaaattgca
HOMEO0146_Pou2f2_3748.1		chr2:204188849-204188999	55	70	+	12.3373	2.89e-05		TTATATgtaaattgca
HOMEO0146_Pou2f2_3748.1		chr2:204188899-204189049	5	20	+	12.3373	2.89e-05		TTATATgtaaattgca
HOMEO0146_Pou2f2_3748.1		chr2:204200199-204200349	115	130	+	10.8916	6.34e-05		TTACATGTAAATTTAC
HOMEO0146_Pou2f2_3748.1		chr2:204200249-204200399	65	80	+	10.8916	6.34e-05		TTACATGTAAATTTAC
HOMEO0146_Pou2f2_3748.1		chr2:204200299-204200449	15	30	+	10.8916	6.34e-05		TTACATGTAAATTTAC
HOMEO0146_Pou2f2_3748.1		chr2:204200299-204200449	97	112	-	15.1205	4.54e-06		AATTATGCAAATATGA
HOMEO0146_Pou2f2_3748.1		chr2:204200349-204200499	47	62	-	15.1205	4.54e-06		AATTATGCAAATATGA
HOMEO0146_Pou2f2_3748.1		chr2:204201799-204201949	134	149	+	11.4578	4.71e-05		ctgtttgcaaatgaca
HOMEO0146_Pou2f2_3748.1		chr2:204201849-204201999	84	99	+	11.4578	4.71e-05		ctgtttgcaaatgaca
HOMEO0146_Pou2f2_3748.1		chr2:204201899-204202049	34	49	+	11.4578	4.71e-05		ctgtttgcaaatgaca
HOMEO0146_Pou2f2_3748.1		chr2:204202099-204202249	114	129	+	12.5542	2.55e-05		gaacatgcaaataaat
HOMEO0146_Pou2f2_3748.1		chr2:204202149-204202299	64	79	+	12.5542	2.55e-05		gaacatgcaaataaat
HOMEO0146_Pou2f2_3748.1		chr2:204202199-204202349	14	29	+	12.5542	2.55e-05		gaacatgcaaataaat
HOMEO0146_Pou2f2_3748.1		chr2:204203849-204203999	132	147	+	11.253	5.26e-05		gagaatgtaaattgga
HOMEO0146_Pou2f2_3748.1		chr2:204203899-204204049	82	97	+	11.253	5.26e-05		gagaatgtaaattgga
HOMEO0146_Pou2f2_3748.1		chr2:204203949-204204099	32	47	+	11.253	5.26e-05		gagaatgtaaattgga
HOMEO0146_Pou2f2_3748.1		chr2:204204499-204204649	92	107	-	10.4337	7.99e-05		GTATATGCAGATTTGG
HOMEO0146_Pou2f2_3748.1		chr2:204204549-204204699	42	57	-	10.4337	7.99e-05		GTATATGCAGATTTGG
HOMEO0146_Pou2f2_3748.1		chr2:204208349-204208499	90	105	-	16.4337	1.35e-06		CTATATGCAAATAACA
HOMEO0146_Pou2f2_3748.1		chr2:204208349-204208499	119	134	+	12.012	3.48e-05		AAATATGTTAATTAAA
HOMEO0146_Pou2f2_3748.1		chr2:204208399-204208549	40	55	-	16.4337	1.35e-06		CTATATGCAAATAACA
HOMEO0146_Pou2f2_3748.1		chr2:204208399-204208549	69	84	+	12.012	3.48e-05		AAATATGTTAATTAAA
HOMEO0146_Pou2f2_3748.1		chr2:204208449-204208599	19	34	+	12.012	3.48e-05		AAATATGTTAATTAAA
HOMEO0146_Pou2f2_3748.1		chr2:204212449-204212599	109	124	-	11.759	4e-05		CTATATGTAAATGTTC
HOMEO0146_Pou2f2_3748.1		chr2:204212499-204212649	59	74	-	11.759	4e-05		CTATATGTAAATGTTC
HOMEO0146_Pou2f2_3748.1		chr2:204212549-204212699	9	24	-	11.759	4e-05		CTATATGTAAATGTTC
HOMEO0146_Pou2f2_3748.1		chr2:204214699-204214849	95	110	+	10.3855	8.18e-05		ctttATTTAAATTCAA
HOMEO0146_Pou2f2_3748.1		chr2:204214749-204214899	45	60	+	10.3855	8.18e-05		ctttATTTAAATTCAA
HOMEO0146_Pou2f2_3748.1		chr2:204215949-204216099	100	115	-	10.7229	6.91e-05		TTATATGGAAATTCAG
HOMEO0146_Pou2f2_3748.1		chr2:204215999-204216149	50	65	-	10.7229	6.91e-05		TTATATGGAAATTCAG
HOMEO0146_Pou2f2_3748.1		chr2:204216099-204216249	99	114	-	9.98795	9.93e-05		GATGATGTAAATGAAA
HOMEO0146_Pou2f2_3748.1		chr2:204216149-204216299	49	64	-	9.98795	9.93e-05		GATGATGTAAATGAAA
HOMEO0146_Pou2f2_3748.1		chr2:204219249-204219399	121	136	-	11.253	5.26e-05		GAAAATGCTAATATGC
HOMEO0146_Pou2f2_3748.1		chr2:204219299-204219449	71	86	-	11.253	5.26e-05		GAAAATGCTAATATGC
HOMEO0146_Pou2f2_3748.1		chr2:204219349-204219499	21	36	-	11.253	5.26e-05		GAAAATGCTAATATGC
HOMEO0146_Pou2f2_3748.1		chr2:204224099-204224249	120	135	+	11.1084	5.67e-05		TTATATTCAAATATGT
HOMEO0146_Pou2f2_3748.1		chr2:204224149-204224299	70	85	+	11.1084	5.67e-05		TTATATTCAAATATGT
HOMEO0146_Pou2f2_3748.1		chr2:204224199-204224349	20	35	+	11.1084	5.67e-05		TTATATTCAAATATGT
HOMEO0146_Pou2f2_3748.1		chr2:204226349-204226499	96	111	+	15.7952	2.54e-06		TTCTATGCAAATACAG
HOMEO0146_Pou2f2_3748.1		chr2:204226399-204226549	46	61	+	15.7952	2.54e-06		TTCTATGCAAATACAG
HOMEO0146_Pou2f2_3748.1		chr2:204229199-204229349	115	130	+	14.4217	7.68e-06		GAGCATGCAAATGTAA
HOMEO0146_Pou2f2_3748.1		chr2:204229249-204229399	65	80	+	14.4217	7.68e-06		GAGCATGCAAATGTAA
HOMEO0146_Pou2f2_3748.1		chr2:204229299-204229449	15	30	+	14.4217	7.68e-06		GAGCATGCAAATGTAA
HOMEO0146_Pou2f2_3748.1		chr2:204231249-204231399	119	134	-	11.4458	4.74e-05		ACAGATGCAAATAAAA
HOMEO0146_Pou2f2_3748.1		chr2:204231299-204231449	69	84	-	11.4458	4.74e-05		ACAGATGCAAATAAAA
HOMEO0146_Pou2f2_3748.1		chr2:204231349-204231499	19	34	-	11.4458	4.74e-05		ACAGATGCAAATAAAA
HOMEO0146_Pou2f2_3748.1		chr2:204232849-204232999	122	137	+	10.3133	8.48e-05		TAAAATGCAATTTAAA
HOMEO0146_Pou2f2_3748.1		chr2:204232899-204233049	72	87	+	10.3133	8.48e-05		TAAAATGCAATTTAAA
HOMEO0146_Pou2f2_3748.1		chr2:204232949-204233099	22	37	+	10.3133	8.48e-05		TAAAATGCAATTTAAA
HOMEO0146_Pou2f2_3748.1		chr2:204236299-204236449	89	104	-	10.1928	8.99e-05		TTTAATGTTAATTTAA
HOMEO0146_Pou2f2_3748.1		chr2:204236349-204236499	39	54	-	10.1928	8.99e-05		TTTAATGTTAATTTAA
HOMEO0146_Pou2f2_3748.1		chr2:204240349-204240499	103	118	-	14.0723	9.79e-06		GCATATTCAAATTAGA
HOMEO0146_Pou2f2_3748.1		chr2:204240349-204240499	111	126	+	10.0602	9.59e-05		GAATATGCTTATTTTC
HOMEO0146_Pou2f2_3748.1		chr2:204240399-204240549	53	68	-	14.0723	9.79e-06		GCATATTCAAATTAGA
HOMEO0146_Pou2f2_3748.1		chr2:204240399-204240549	61	76	+	10.0602	9.59e-05		GAATATGCTTATTTTC
HOMEO0146_Pou2f2_3748.1		chr2:204240449-204240599	3	18	-	14.0723	9.79e-06		GCATATTCAAATTAGA
HOMEO0146_Pou2f2_3748.1		chr2:204240449-204240599	11	26	+	10.0602	9.59e-05		GAATATGCTTATTTTC
HOMEO0146_Pou2f2_3748.1		chr2:204240599-204240749	96	111	+	14.1325	9.4e-06		AAGAATGCAAATTATA
HOMEO0146_Pou2f2_3748.1		chr2:204240649-204240799	46	61	+	14.1325	9.4e-06		AAGAATGCAAATTATA
HOMEO0146_Pou2f2_3748.1		chr2:204241449-204241599	92	107	+	11.6265	4.3e-05		TAATATGTAAATGTCC
HOMEO0146_Pou2f2_3748.1		chr2:204241499-204241649	42	57	+	11.6265	4.3e-05		TAATATGTAAATGTCC
HOMEO0146_Pou2f2_3748.1		chr2:204241949-204242099	106	121	+	11.7831	3.95e-05		TAGTATGCAGATGTGA
HOMEO0146_Pou2f2_3748.1		chr2:204241999-204242149	56	71	+	11.7831	3.95e-05		TAGTATGCAGATGTGA
HOMEO0146_Pou2f2_3748.1		chr2:204242049-204242199	6	21	+	11.7831	3.95e-05		TAGTATGCAGATGTGA
HOMEO0146_Pou2f2_3748.1		chr2:204244499-204244649	110	125	-	10.3855	8.18e-05		TAAAATTCAAATTTGC
HOMEO0146_Pou2f2_3748.1		chr2:204244549-204244699	60	75	-	10.3855	8.18e-05		TAAAATTCAAATTTGC
HOMEO0146_Pou2f2_3748.1		chr2:204244599-204244749	10	25	-	10.3855	8.18e-05		TAAAATTCAAATTTGC
HOMEO0146_Pou2f2_3748.1		chr2:204245549-204245699	121	136	+	12.6988	2.34e-05		GAACATGCAAATTTCA
HOMEO0146_Pou2f2_3748.1		chr2:204245599-204245749	71	86	+	12.6988	2.34e-05		GAACATGCAAATTTCA
HOMEO0146_Pou2f2_3748.1		chr2:204245649-204245799	21	36	+	12.6988	2.34e-05		GAACATGCAAATTTCA
HOMEO0146_Pou2f2_3748.1		chr2:204247499-204247649	91	106	+	10.6747	7.08e-05		TTATATGCAAAACATC
HOMEO0146_Pou2f2_3748.1		chr2:204247549-204247699	41	56	+	10.6747	7.08e-05		TTATATGCAAAACATC
HOMEO0146_Pou2f2_3748.1		chr2:204248049-204248199	106	121	+	12.2892	2.98e-05		CTGTATTCAAATTTTG
HOMEO0146_Pou2f2_3748.1		chr2:204248099-204248249	56	71	+	12.2892	2.98e-05		CTGTATTCAAATTTTG
HOMEO0146_Pou2f2_3748.1		chr2:204248149-204248299	6	21	+	12.2892	2.98e-05		CTGTATTCAAATTTTG
HOMEO0146_Pou2f2_3748.1		chr2:204249349-204249499	111	126	-	11.1205	5.63e-05		TAATATGCTTATTTTA
HOMEO0146_Pou2f2_3748.1		chr2:204249399-204249549	61	76	-	11.1205	5.63e-05		TAATATGCTTATTTTA
HOMEO0146_Pou2f2_3748.1		chr2:204249449-204249599	11	26	-	11.1205	5.63e-05		TAATATGCTTATTTTA
HOMEO0146_Pou2f2_3748.1		chr2:204252049-204252199	119	134	-	11.747	4.03e-05		AGGAATGCAAATACCA
HOMEO0146_Pou2f2_3748.1		chr2:204252099-204252249	69	84	-	11.747	4.03e-05		AGGAATGCAAATACCA
HOMEO0146_Pou2f2_3748.1		chr2:204252149-204252299	19	34	-	11.747	4.03e-05		AGGAATGCAAATACCA
HOMEO0146_Pou2f2_3748.1		chr2:204254049-204254199	106	121	+	11.1928	5.42e-05		GCCTATTCAAATAACA
HOMEO0146_Pou2f2_3748.1		chr2:204254099-204254249	56	71	+	11.1928	5.42e-05		GCCTATTCAAATAACA
HOMEO0146_Pou2f2_3748.1		chr2:204254149-204254299	6	21	+	11.1928	5.42e-05		GCCTATTCAAATAACA
HOMEO0146_Pou2f2_3748.1		chr2:204254899-204255049	96	111	-	11.4458	4.74e-05		AACTATGCATATGATC
HOMEO0146_Pou2f2_3748.1		chr2:204254949-204255099	46	61	-	11.4458	4.74e-05		AACTATGCATATGATC
HOMEO0146_Pou2f2_3748.1		chr2:204258049-204258199	111	126	-	12.4819	2.66e-05		TATAATGCAAATATTA
HOMEO0146_Pou2f2_3748.1		chr2:204258099-204258249	61	76	-	12.4819	2.66e-05		TATAATGCAAATATTA
HOMEO0146_Pou2f2_3748.1		chr2:204258149-204258299	11	26	-	12.4819	2.66e-05		TATAATGCAAATATTA
HOMEO0146_Pou2f2_3748.1		chr2:204263899-204264049	94	109	-	12.8193	2.18e-05		GAAAATGCAAATCCAA
HOMEO0146_Pou2f2_3748.1		chr2:204263949-204264099	44	59	-	12.8193	2.18e-05		GAAAATGCAAATCCAA
HOMEO0146_Pou2f2_3748.1		chr2:204265099-204265249	122	137	+	10.8795	6.38e-05		TGAAATGCTAATTGTA
HOMEO0146_Pou2f2_3748.1		chr2:204265149-204265299	72	87	+	10.8795	6.38e-05		TGAAATGCTAATTGTA
HOMEO0146_Pou2f2_3748.1		chr2:204265199-204265349	22	37	+	10.8795	6.38e-05		TGAAATGCTAATTGTA
HOMEO0146_Pou2f2_3748.1		chr2:204267349-204267499	122	137	-	10.3133	8.48e-05		TAGAATGCAAAAAAAC
HOMEO0146_Pou2f2_3748.1		chr2:204267399-204267549	72	87	-	10.3133	8.48e-05		TAGAATGCAAAAAAAC
HOMEO0146_Pou2f2_3748.1		chr2:204267449-204267599	22	37	-	10.3133	8.48e-05		TAGAATGCAAAAAAAC
HOMEO0146_Pou2f2_3748.1		chr2:204268199-204268349	92	107	-	10.3976	8.13e-05		CATTATTTAAATTAAG
HOMEO0146_Pou2f2_3748.1		chr2:204268249-204268399	42	57	-	10.3976	8.13e-05		CATTATTTAAATTAAG
HOMEO0146_Pou2f2_3748.1		chr2:204269999-204270149	106	121	-	10.9398	6.19e-05		TAATATTCTAATGAAT
HOMEO0146_Pou2f2_3748.1		chr2:204270049-204270199	56	71	-	10.9398	6.19e-05		TAATATTCTAATGAAT
HOMEO0146_Pou2f2_3748.1		chr2:204270099-204270249	6	21	-	10.9398	6.19e-05		TAATATTCTAATGAAT
HOMEO0146_Pou2f2_3748.1		chr2:204270799-204270949	90	105	+	10.8072	6.62e-05		TTAAATGTAAATATGA
HOMEO0146_Pou2f2_3748.1		chr2:204270849-204270999	40	55	+	10.8072	6.62e-05		TTAAATGTAAATATGA
HOMEO0146_Pou2f2_3748.1		chr2:204274049-204274199	104	119	-	11.4096	4.84e-05		GATTATGCAAAATATC
HOMEO0146_Pou2f2_3748.1		chr2:204274099-204274249	54	69	-	11.4096	4.84e-05		GATTATGCAAAATATC
HOMEO0146_Pou2f2_3748.1		chr2:204274149-204274299	4	19	-	11.4096	4.84e-05		GATTATGCAAAATATC
HOMEO0146_Pou2f2_3748.1		chr2:204276649-204276799	132	147	-	11.6867	4.17e-05		ATTCATGCAAATCATG
HOMEO0146_Pou2f2_3748.1		chr2:204276699-204276849	82	97	-	11.6867	4.17e-05		ATTCATGCAAATCATG
HOMEO0146_Pou2f2_3748.1		chr2:204276749-204276899	32	47	-	11.6867	4.17e-05		ATTCATGCAAATCATG
HOMEO0146_Pou2f2_3748.1		chr2:204281299-204281449	111	126	-	10.8675	6.42e-05		ATTAATGCTAATGGAC
HOMEO0146_Pou2f2_3748.1		chr2:204281349-204281499	61	76	-	10.8675	6.42e-05		ATTAATGCTAATGGAC
HOMEO0146_Pou2f2_3748.1		chr2:204281399-204281549	11	26	-	10.8675	6.42e-05		ATTAATGCTAATGGAC
HOMEO0146_Pou2f2_3748.1		chr2:204281449-204281599	134	149	-	10.4578	7.9e-05		TGTTATGCAAAGTTCA
HOMEO0146_Pou2f2_3748.1		chr2:204281499-204281649	84	99	-	10.4578	7.9e-05		TGTTATGCAAAGTTCA
HOMEO0146_Pou2f2_3748.1		chr2:204281549-204281699	34	49	-	10.4578	7.9e-05		TGTTATGCAAAGTTCA
HOMEO0146_Pou2f2_3748.1		chr2:204286049-204286199	121	136	-	10.6265	7.26e-05		CCGTTTGCAAATCAGG
HOMEO0146_Pou2f2_3748.1		chr2:204286099-204286249	71	86	-	10.6265	7.26e-05		CCGTTTGCAAATCAGG
HOMEO0146_Pou2f2_3748.1		chr2:204286149-204286299	21	36	-	10.6265	7.26e-05		CCGTTTGCAAATCAGG
HOMEO0146_Pou2f2_3748.1		chr2:204290099-204290249	125	140	-	10.9398	6.19e-05		AGAAATGCAAATCCAG
HOMEO0146_Pou2f2_3748.1		chr2:204290149-204290299	75	90	-	10.9398	6.19e-05		AGAAATGCAAATCCAG
HOMEO0146_Pou2f2_3748.1		chr2:204290199-204290349	25	40	-	10.9398	6.19e-05		AGAAATGCAAATCCAG
HOMEO0146_Pou2f2_3748.1		chr2:204295399-204295549	112	127	+	14	1.03e-05		TTTTATGCATATTTAC
HOMEO0146_Pou2f2_3748.1		chr2:204295449-204295599	62	77	+	14	1.03e-05		TTTTATGCATATTTAC
HOMEO0146_Pou2f2_3748.1		chr2:204295499-204295649	12	27	+	14	1.03e-05		TTTTATGCATATTTAC
HOMEO0146_Pou2f2_3748.1		chr2:204298499-204298649	96	111	+	10.6145	7.3e-05		AAACATGTAAATGAAA
HOMEO0146_Pou2f2_3748.1		chr2:204298549-204298699	46	61	+	10.6145	7.3e-05		AAACATGTAAATGAAA
HOMEO0146_Pou2f2_3748.1		chr2:204309449-204309599	114	129	+	12.5422	2.57e-05		TTCAATGTAAATTAAA
HOMEO0146_Pou2f2_3748.1		chr2:204309499-204309649	64	79	+	12.5422	2.57e-05		TTCAATGTAAATTAAA
HOMEO0146_Pou2f2_3748.1		chr2:204309549-204309699	14	29	+	12.5422	2.57e-05		TTCAATGTAAATTAAA
HOMEO0146_Pou2f2_3748.1		chr2:204319499-204319649	117	132	+	11.2651	5.22e-05		TATAATGCATATGTAA
HOMEO0146_Pou2f2_3748.1		chr2:204319549-204319699	67	82	+	11.2651	5.22e-05		TATAATGCATATGTAA
HOMEO0146_Pou2f2_3748.1		chr2:204319599-204319749	17	32	+	11.2651	5.22e-05		TATAATGCATATGTAA
HOMEO0146_Pou2f2_3748.1		chr2:204319999-204320149	114	129	-	12.2169	3.1e-05		CATTATGCTAATTGCT
HOMEO0146_Pou2f2_3748.1		chr2:204320049-204320199	64	79	-	12.2169	3.1e-05		CATTATGCTAATTGCT
HOMEO0146_Pou2f2_3748.1		chr2:204320099-204320249	14	29	-	12.2169	3.1e-05		CATTATGCTAATTGCT
HOMEO0146_Pou2f2_3748.1		chr2:204321499-204321649	115	130	+	10.6386	7.21e-05		TTATATTCAAATTTCT
HOMEO0146_Pou2f2_3748.1		chr2:204321549-204321699	65	80	+	10.6386	7.21e-05		TTATATTCAAATTTCT
HOMEO0146_Pou2f2_3748.1		chr2:204321599-204321749	15	30	+	10.6386	7.21e-05		TTATATTCAAATTTCT
HOMEO0146_Pou2f2_3748.1		chr2:204323149-204323299	88	103	-	17.4699	3.65e-07		TTATATGCAAATGTGA
HOMEO0146_Pou2f2_3748.1		chr2:204323199-204323349	38	53	-	17.4699	3.65e-07		TTATATGCAAATGTGA
HOMEO0146_Pou2f2_3748.1		chr2:204323199-204323349	129	144	-	15	5e-06		ATTCATGCAAATTAAA
HOMEO0146_Pou2f2_3748.1		chr2:204323249-204323399	79	94	-	15	5e-06		ATTCATGCAAATTAAA
HOMEO0146_Pou2f2_3748.1		chr2:204323299-204323449	29	44	-	15	5e-06		ATTCATGCAAATTAAA
HOMEO0146_Pou2f2_3748.1		chr2:204324049-204324199	115	130	+	10.1084	9.37e-05		AAGTATGTTTATTAGA
HOMEO0146_Pou2f2_3748.1		chr2:204324099-204324249	65	80	+	10.1084	9.37e-05		AAGTATGTTTATTAGA
HOMEO0146_Pou2f2_3748.1		chr2:204324149-204324299	15	30	+	10.1084	9.37e-05		AAGTATGTTTATTAGA
HOMEO0146_Pou2f2_3748.1		chr2:204324799-204324949	122	137	+	10.7831	6.71e-05		aattatgttaatgaca
HOMEO0146_Pou2f2_3748.1		chr2:204324849-204324999	72	87	+	10.7831	6.71e-05		aattatgttaatgaca
HOMEO0146_Pou2f2_3748.1		chr2:204324899-204325049	22	37	+	10.7831	6.71e-05		aattatgttaatgaca
HOMEO0146_Pou2f2_3748.1		chr7:5523659-5523809	94	109	-	12.6145	2.46e-05		TTTGATGCAAATCAAG
HOMEO0146_Pou2f2_3748.1		chr7:5523709-5523859	44	59	-	12.6145	2.46e-05		TTTGATGCAAATCAAG
HOMEO0146_Pou2f2_3748.1		chr7:5604959-5605109	125	140	+	11.4217	4.8e-05		ccttatgcaaagcAGC
HOMEO0146_Pou2f2_3748.1		chr7:5605009-5605159	75	90	+	11.4217	4.8e-05		ccttatgcaaagcAGC
HOMEO0146_Pou2f2_3748.1		chr7:5605059-5605209	25	40	+	11.4217	4.8e-05		ccttatgcaaagcAGC
HOMEO0146_Pou2f2_3748.1		chr7:5612809-5612959	100	115	+	10	9.87e-05		TCTTATGTATATTGAA
HOMEO0146_Pou2f2_3748.1		chr7:5612859-5613009	50	65	+	10	9.87e-05		TCTTATGTATATTGAA
HOMEO0146_Pou2f2_3748.1		chr7:5616109-5616259	97	112	+	10.3494	8.33e-05		tttcatgttaattaca
HOMEO0146_Pou2f2_3748.1		chr7:5616159-5616309	47	62	+	10.3494	8.33e-05		tttcatgttaattaca
HOMEO0146_Pou2f2_3748.1		chr7:5621009-5621159	115	130	-	11.9157	3.67e-05		TGCTATGCATATTTTA
HOMEO0146_Pou2f2_3748.1		chr7:5621059-5621209	65	80	-	11.9157	3.67e-05		TGCTATGCATATTTTA
HOMEO0146_Pou2f2_3748.1		chr7:5621109-5621259	15	30	-	11.9157	3.67e-05		TGCTATGCATATTTTA
HOMEO0146_Pou2f2_3748.1		chr7:5622009-5622159	127	142	-	10.7831	6.71e-05		TAAAATGCATATGAAT
HOMEO0146_Pou2f2_3748.1		chr7:5622059-5622209	77	92	-	10.7831	6.71e-05		TAAAATGCATATGAAT
HOMEO0146_Pou2f2_3748.1		chr7:5622109-5622259	27	42	-	10.7831	6.71e-05		TAAAATGCATATGAAT
HOMEO0146_Pou2f2_3748.1		chr7:5640659-5640809	117	132	+	15.9639	2.17e-06		CAGTATGCAAATCCAG
HOMEO0146_Pou2f2_3748.1		chr7:5640709-5640859	67	82	+	15.9639	2.17e-06		CAGTATGCAAATCCAG
HOMEO0146_Pou2f2_3748.1		chr7:5640759-5640909	17	32	+	15.9639	2.17e-06		CAGTATGCAAATCCAG
HOMEO0146_Pou2f2_3748.1		chr7:5656309-5656459	132	147	-	12.747	2.28e-05		GTATATGCAAAGTAGG
HOMEO0146_Pou2f2_3748.1		chr7:5656359-5656509	82	97	-	12.747	2.28e-05		GTATATGCAAAGTAGG
HOMEO0146_Pou2f2_3748.1		chr7:5656409-5656559	32	47	-	12.747	2.28e-05		GTATATGCAAAGTAGG
