motif_id	motif_alt_id	sequence_name	start	stop	strand	score	p-value	q-value	matched_sequence
HOMEO0063_Hoxb6_3428.2		chr2:204182749-204182899	126	141	-	10.8562	7.3e-05		TAAAGATAATTACAGT
HOMEO0063_Hoxb6_3428.2		chr2:204182799-204182949	76	91	-	10.8562	7.3e-05		TAAAGATAATTACAGT
HOMEO0063_Hoxb6_3428.2		chr2:204182849-204182999	26	41	-	10.8562	7.3e-05		TAAAGATAATTACAGT
HOMEO0063_Hoxb6_3428.2		chr2:204188549-204188699	113	128	-	10.911	7e-05		TTAGAGTAATTAACAT
HOMEO0063_Hoxb6_3428.2		chr2:204188599-204188749	63	78	-	10.911	7e-05		TTAGAGTAATTAACAT
HOMEO0063_Hoxb6_3428.2		chr2:204188649-204188799	13	28	-	10.911	7e-05		TTAGAGTAATTAACAT
HOMEO0063_Hoxb6_3428.2		chr2:204192149-204192299	93	108	-	13.7055	6.11e-06		TAGTAGTAATTGCCTT
HOMEO0063_Hoxb6_3428.2		chr2:204192199-204192349	43	58	-	13.7055	6.11e-06		TAGTAGTAATTGCCTT
HOMEO0063_Hoxb6_3428.2		chr2:204194749-204194899	89	104	+	10.637	8.61e-05		ATTTTGTAATGGCCAC
HOMEO0063_Hoxb6_3428.2		chr2:204194799-204194949	39	54	+	10.637	8.61e-05		ATTTTGTAATGGCCAC
HOMEO0063_Hoxb6_3428.2		chr2:204197749-204197899	92	107	+	11.2671	5.32e-05		CAAAAGTAATTACCAA
HOMEO0063_Hoxb6_3428.2		chr2:204197749-204197899	94	109	-	15.7671	5.31e-07		TTTTGGTAATTACTTT
HOMEO0063_Hoxb6_3428.2		chr2:204197799-204197949	42	57	+	11.2671	5.32e-05		CAAAAGTAATTACCAA
HOMEO0063_Hoxb6_3428.2		chr2:204197799-204197949	44	59	-	15.7671	5.31e-07		TTTTGGTAATTACTTT
HOMEO0063_Hoxb6_3428.2		chr2:204212999-204213149	118	133	-	11.5068	4.42e-05		TTAAGCTAATTACCTC
HOMEO0063_Hoxb6_3428.2		chr2:204213049-204213199	68	83	-	11.5068	4.42e-05		TTAAGCTAATTACCTC
HOMEO0063_Hoxb6_3428.2		chr2:204213099-204213249	18	33	-	11.5068	4.42e-05		TTAAGCTAATTACCTC
HOMEO0063_Hoxb6_3428.2		chr2:204239199-204239349	87	102	+	10.7055	8.18e-05		AATACGTAATTATGCA
HOMEO0063_Hoxb6_3428.2		chr2:204239199-204239349	89	104	-	13.5548	7.11e-06		TATGCATAATTACGTA
HOMEO0063_Hoxb6_3428.2		chr2:204239249-204239399	37	52	+	10.7055	8.18e-05		AATACGTAATTATGCA
HOMEO0063_Hoxb6_3428.2		chr2:204239249-204239399	39	54	-	13.5548	7.11e-06		TATGCATAATTACGTA
HOMEO0063_Hoxb6_3428.2		chr2:204240149-204240299	130	145	-	11.7671	3.57e-05		TATCAGTAATTATGGC
HOMEO0063_Hoxb6_3428.2		chr2:204240199-204240349	80	95	-	11.7671	3.57e-05		TATCAGTAATTATGGC
HOMEO0063_Hoxb6_3428.2		chr2:204240249-204240399	30	45	-	11.7671	3.57e-05		TATCAGTAATTATGGC
HOMEO0063_Hoxb6_3428.2		chr2:204243699-204243849	125	140	+	10.6849	8.3e-05		AGATTGTAATTACAAT
HOMEO0063_Hoxb6_3428.2		chr2:204243749-204243899	75	90	+	10.6849	8.3e-05		AGATTGTAATTACAAT
HOMEO0063_Hoxb6_3428.2		chr2:204243799-204243949	25	40	+	10.6849	8.3e-05		AGATTGTAATTACAAT
HOMEO0063_Hoxb6_3428.2		chr2:204246399-204246549	107	122	+	10.9521	6.78e-05		TTTGCCCAATTACATA
HOMEO0063_Hoxb6_3428.2		chr2:204246449-204246599	57	72	+	10.9521	6.78e-05		TTTGCCCAATTACATA
HOMEO0063_Hoxb6_3428.2		chr2:204246499-204246649	7	22	+	10.9521	6.78e-05		TTTGCCCAATTACATA
HOMEO0063_Hoxb6_3428.2		chr2:204257599-204257749	116	131	+	12.0616	2.78e-05		TTTGTGTCATTGCCTT
HOMEO0063_Hoxb6_3428.2		chr2:204257649-204257799	66	81	+	12.0616	2.78e-05		TTTGTGTCATTGCCTT
HOMEO0063_Hoxb6_3428.2		chr2:204257699-204257849	16	31	+	12.0616	2.78e-05		TTTGTGTCATTGCCTT
HOMEO0063_Hoxb6_3428.2		chr2:204258149-204258299	128	143	+	13.4178	8.17e-06		TATTTTTAATTACCAA
HOMEO0063_Hoxb6_3428.2		chr2:204258149-204258299	130	145	-	11.2534	5.38e-05		CATTGGTAATTAAAAA
HOMEO0063_Hoxb6_3428.2		chr2:204258199-204258349	78	93	+	13.4178	8.17e-06		TATTTTTAATTACCAA
HOMEO0063_Hoxb6_3428.2		chr2:204258199-204258349	80	95	-	11.2534	5.38e-05		CATTGGTAATTAAAAA
HOMEO0063_Hoxb6_3428.2		chr2:204258249-204258399	28	43	+	13.4178	8.17e-06		TATTTTTAATTACCAA
HOMEO0063_Hoxb6_3428.2		chr2:204258249-204258399	30	45	-	11.2534	5.38e-05		CATTGGTAATTAAAAA
HOMEO0063_Hoxb6_3428.2		chr2:204262949-204263099	134	149	+	10.8562	7.3e-05		TTTTAGTAATTAAATA
HOMEO0063_Hoxb6_3428.2		chr2:204262999-204263149	84	99	+	10.8562	7.3e-05		TTTTAGTAATTAAATA
HOMEO0063_Hoxb6_3428.2		chr2:204263049-204263199	34	49	+	10.8562	7.3e-05		TTTTAGTAATTAAATA
HOMEO0063_Hoxb6_3428.2		chr2:204263249-204263399	104	119	-	11.2671	5.32e-05		TGGTGGCAATTACATG
HOMEO0063_Hoxb6_3428.2		chr2:204263299-204263449	54	69	-	11.2671	5.32e-05		TGGTGGCAATTACATG
HOMEO0063_Hoxb6_3428.2		chr2:204263349-204263499	4	19	-	11.2671	5.32e-05		TGGTGGCAATTACATG
HOMEO0063_Hoxb6_3428.2		chr2:204264599-204264749	134	149	-	10.6438	8.56e-05		TATACCTAATTATCAT
HOMEO0063_Hoxb6_3428.2		chr2:204264649-204264799	84	99	-	10.6438	8.56e-05		TATACCTAATTATCAT
HOMEO0063_Hoxb6_3428.2		chr2:204264699-204264849	34	49	-	10.6438	8.56e-05		TATACCTAATTATCAT
HOMEO0063_Hoxb6_3428.2		chr2:204267399-204267549	126	141	-	13.8288	5.4e-06		TATTTGTAATTAAGGG
HOMEO0063_Hoxb6_3428.2		chr2:204267449-204267599	76	91	-	13.8288	5.4e-06		TATTTGTAATTAAGGG
HOMEO0063_Hoxb6_3428.2		chr2:204267499-204267649	26	41	-	13.8288	5.4e-06		TATTTGTAATTAAGGG
HOMEO0063_Hoxb6_3428.2		chr2:204277549-204277699	126	141	+	10.8767	7.19e-05		TAAATGTCATTACAGT
HOMEO0063_Hoxb6_3428.2		chr2:204277599-204277749	76	91	+	10.8767	7.19e-05		TAAATGTCATTACAGT
HOMEO0063_Hoxb6_3428.2		chr2:204277649-204277799	26	41	+	10.8767	7.19e-05		TAAATGTCATTACAGT
HOMEO0063_Hoxb6_3428.2		chr2:204282749-204282899	133	148	+	11.1164	5.97e-05		tatgtgtaattggagt
HOMEO0063_Hoxb6_3428.2		chr2:204282799-204282949	83	98	+	11.1164	5.97e-05		tatgtgtaattggagt
HOMEO0063_Hoxb6_3428.2		chr2:204282849-204282999	33	48	+	11.1164	5.97e-05		tatgtgtaattggagt
HOMEO0063_Hoxb6_3428.2		chr2:204285599-204285749	136	151	+	10.5479	9.18e-05		AAATTGTAATTAGGTG
HOMEO0063_Hoxb6_3428.2		chr2:204285649-204285799	86	101	+	10.5479	9.18e-05		AAATTGTAATTAGGTG
HOMEO0063_Hoxb6_3428.2		chr2:204285699-204285849	36	51	+	10.5479	9.18e-05		AAATTGTAATTAGGTG
HOMEO0063_Hoxb6_3428.2		chr2:204295999-204296149	133	148	+	11.1438	5.85e-05		TTTTGGTAAATACCAT
HOMEO0063_Hoxb6_3428.2		chr2:204296049-204296199	83	98	+	11.1438	5.85e-05		TTTTGGTAAATACCAT
HOMEO0063_Hoxb6_3428.2		chr2:204296099-204296249	33	48	+	11.1438	5.85e-05		TTTTGGTAAATACCAT
HOMEO0063_Hoxb6_3428.2		chr2:204303349-204303499	105	120	-	11.6712	3.87e-05		ATGGCGTAATTAACTC
HOMEO0063_Hoxb6_3428.2		chr2:204303399-204303549	55	70	-	11.6712	3.87e-05		ATGGCGTAATTAACTC
HOMEO0063_Hoxb6_3428.2		chr2:204303449-204303599	5	20	-	11.6712	3.87e-05		ATGGCGTAATTAACTC
HOMEO0063_Hoxb6_3428.2		chr2:204313549-204313699	112	127	-	11.637	3.98e-05		TATTGGCCATTACTCT
HOMEO0063_Hoxb6_3428.2		chr2:204313599-204313749	62	77	-	11.637	3.98e-05		TATTGGCCATTACTCT
HOMEO0063_Hoxb6_3428.2		chr2:204313649-204313799	12	27	-	11.637	3.98e-05		TATTGGCCATTACTCT
HOMEO0063_Hoxb6_3428.2		chr2:204314249-204314399	100	115	-	10.6644	8.43e-05		CATAAGTCATTACATT
HOMEO0063_Hoxb6_3428.2		chr2:204314299-204314449	50	65	-	10.6644	8.43e-05		CATAAGTCATTACATT
HOMEO0063_Hoxb6_3428.2		chr2:204317149-204317299	95	110	-	10.6027	8.82e-05		AAAGCATAATTACTTG
HOMEO0063_Hoxb6_3428.2		chr2:204317199-204317349	45	60	-	10.6027	8.82e-05		AAAGCATAATTACTTG
HOMEO0063_Hoxb6_3428.2		chr7:5480959-5481109	136	151	-	11.1096	6.01e-05		TTTTCGTAATTGATGT
HOMEO0063_Hoxb6_3428.2		chr7:5481009-5481159	86	101	-	11.1096	6.01e-05		TTTTCGTAATTGATGT
HOMEO0063_Hoxb6_3428.2		chr7:5481059-5481209	36	51	-	11.1096	6.01e-05		TTTTCGTAATTGATGT
HOMEO0063_Hoxb6_3428.2		chr7:5561209-5561359	88	103	-	12.2808	2.32e-05		TATGACTAATTACTTA
HOMEO0063_Hoxb6_3428.2		chr7:5561259-5561409	38	53	-	12.2808	2.32e-05		TATGACTAATTACTTA
HOMEO0063_Hoxb6_3428.2		chr7:5616109-5616259	101	116	-	11.8562	3.31e-05		AATATGTAATTAACAT
HOMEO0063_Hoxb6_3428.2		chr7:5616159-5616309	51	66	-	11.8562	3.31e-05		AATATGTAATTAACAT
HOMEO0063_Hoxb6_3428.2		chr7:5616209-5616359	1	16	-	11.8562	3.31e-05		AATATGTAATTAACAT
HOMEO0063_Hoxb6_3428.2		chr7:5618209-5618359	97	112	+	10.6986	8.22e-05		CTTTGGTAATTATTTG
HOMEO0063_Hoxb6_3428.2		chr7:5618259-5618409	47	62	+	10.6986	8.22e-05		CTTTGGTAATTATTTG
HOMEO0063_Hoxb6_3428.2		chr7:5621859-5622009	130	145	-	11.4521	4.61e-05		AAAAAGTAATTGCCTC
HOMEO0063_Hoxb6_3428.2		chr7:5621909-5622059	80	95	-	11.4521	4.61e-05		AAAAAGTAATTGCCTC
HOMEO0063_Hoxb6_3428.2		chr7:5621959-5622109	30	45	-	11.4521	4.61e-05		AAAAAGTAATTGCCTC
HOMEO0063_Hoxb6_3428.2		chr7:5637259-5637409	89	104	-	10.9589	6.74e-05		TTATTTTAATTACAGT
HOMEO0063_Hoxb6_3428.2		chr7:5637309-5637459	39	54	-	10.9589	6.74e-05		TTATTTTAATTACAGT
