QScore	length	GC	GC_Skewed	TFBS	ratio_dat	nTFBS	nTF	QScore_norm
CLGT#3_20190606.fa	409.885993058314	1057	46.74	-0.4	231	0.376623376623377	87	46	0.146047915549904
CLGT1_20141001	319.469097303243	1110	55.86	-9.68	231	0.311688311688312	72	37	0.089707012229763
CLGT2_20141005	319.162246718529	1112	57.01	13.56	231	0.303030303030303	70	37	0.0869746693695578
MGT#1_20170423	377.761658737727	827	47.76	-0.76	231	0.359307359307359	83	43	0.164126413601718
MGT#2_20190403	451.183759802559	1037	46.29	-2.5	231	0.428571428571429	99	43	0.186465254085642
MGT#4_29190606	700.354976188237	1057	53.93	0.35	231	0.640692640692641	148	60	0.424514928208395
mgt10.top4.fa	619.534603925106	604	57.78	1.43	231	0.554112554112554	128	51	0.568364075731871
mgt10.top5.fa	684.216874132094	755	54.04	-1.96	231	0.619047619047619	143	58	0.561010366680368
mgt10.top6.fa	721.748574869822	906	52.54	-2.94	231	0.662337662337662	153	63	0.52763936410024
mgt10.top7.fa	752.88901390794	1057	55.72	0.17	231	0.688311688311688	159	63	0.49027654519801
mgt11.top4.fa	445.386229825723	604	61.75	-18.5	231	0.41991341991342	97	45	0.309641812828582
mgt11.top5.fa	517.84157676672	755	57.35	-14.55	231	0.493506493506494	114	52	0.338487656611944
mgt11.top6.fa	576.082361858654	906	54.64	-10.71	231	0.54978354978355	127	56	0.349581242682497
mgt11.top7.fa	620.009813521322	1057	52.6	-8.99	231	0.593073593073593	137	56	0.347882164471125
mgt5_CP.top4.fa	621.043783551169	604	60.6	-3.83	231	0.554112554112554	128	51	0.56974860450209
mgt5_CP.top5.fa	688.560188157438	755	56.56	-3.51	231	0.619047619047619	143	58	0.564571582847474
mgt5_CP.top6.fa	736.043188263191	906	59.27	-3.91	231	0.666666666666667	154	63	0.541606466713165
mgt5_CP.top7.fa	785.807859349633	1057	55.82	-0.34	231	0.714285714285714	165	69	0.531023016184372
mgt5_GZ.top4.fa	621.043783551169	604	60.6	-3.83	231	0.554112554112554	128	51	0.56974860450209
mgt5_GZ.top5.fa	688.560188157438	755	56.56	-3.51	231	0.619047619047619	143	58	0.564571582847474
mgt5_GZ.top6.fa	736.043188263191	906	59.27	-3.91	231	0.666666666666667	154	63	0.541606466713165
mgt5_GZ.top7.fa	785.807859349633	1057	55.82	-0.34	231	0.714285714285714	165	69	0.531023016184372
mgt6.top4.fa	551.647711034463	604	57.95	9.71	231	0.502164502164502	116	45	0.458638904274517
mgt6.top5.fa	614.158117882936	755	56.29	3.53	231	0.558441558441558	129	48	0.45426677679481
mgt6.top6.fa	678.10262420954	906	54.08	1.63	231	0.623376623376623	144	55	0.466570997994007
mgt6.top7.fa	726.231535505157	1057	55.25	3.08	231	0.670995670995671	155	59	0.461020072341059
mgt7.top4.fa	505.674805770972	604	48.68	3.4	231	0.480519480519481	111	47	0.402295687054399
mgt7.top5.fa	581.741712137073	755	49.01	7.57	231	0.54978354978355	127	52	0.423618574246199
mgt7.top6.fa	653.839439684104	906	50.33	5.7	231	0.614718614718615	142	56	0.443628338422745
mgt7.top7.fa	693.60100011513	1057	49.57	1.53	231	0.649350649350649	150	58	0.426102421773907
mgt8.top4.fa	396.578234769466	604	56.95	1.16	231	0.380952380952381	88	45	0.250128183392914
mgt8.top5.fa	444.193711680885	755	54.83	-0.48	231	0.424242424242424	98	46	0.249597108710913
mgt8.top6.fa	487.667007959573	906	51.66	2.14	231	0.463203463203463	107	50	0.24932565891495
mgt8.top7.fa	519.252093494941	1057	50.14	0	231	0.493506493506494	114	55	0.242435458757421
mgt9.top4.fa	551.647711034463	604	57.95	9.71	231	0.502164502164502	116	45	0.458638904274517
mgt9.top5.fa	613.784068595777	755	55.5	8.83	231	0.562770562770563	130	48	0.457509411527485
mgt9.top6.fa	658.81905695139	906	55.96	8.48	231	0.606060606060606	140	53	0.440711122450592
mgt9.top7.fa	695.759091135022	1057	57.62	10.67	231	0.645021645021645	149	58	0.424578688271217
PNGT#1_20140930	253.776544109583	1064	66.64	4.37	231	0.251082251082251	58	29	0.059886077036568
PNGT#2_20151009	295.667530893194	1164	63.06	4.36	231	0.285714285714286	66	35	0.0725742589330374
PNGT#3_20190606	418.289181396213	1057	42.76	-3.54	231	0.38961038961039	90	40	0.154181467297625
